%YAML 1.1
%TAG !u! tag:unity3d.com,2011:
--- !u!29 &1
OcclusionCullingSettings:
  m_ObjectHideFlags: 0
  serializedVersion: 2
  m_OcclusionBakeSettings:
    smallestOccluder: 5
    smallestHole: 0.25
    backfaceThreshold: 100
  m_SceneGUID: 00000000000000000000000000000000
  m_OcclusionCullingData: {fileID: 0}
--- !u!104 &2
RenderSettings:
  m_ObjectHideFlags: 0
  serializedVersion: 9
  m_Fog: 0
  m_FogColor: {r: 0.5, g: 0.5, b: 0.5, a: 1}
  m_FogMode: 3
  m_FogDensity: 0.01
  m_LinearFogStart: 0
  m_LinearFogEnd: 300
  m_AmbientSkyColor: {r: 0.212, g: 0.227, b: 0.259, a: 1}
  m_AmbientEquatorColor: {r: 0.114, g: 0.125, b: 0.133, a: 1}
  m_AmbientGroundColor: {r: 0.047, g: 0.043, b: 0.035, a: 1}
  m_AmbientIntensity: 1
  m_AmbientMode: 0
  m_SubtractiveShadowColor: {r: 0.42, g: 0.478, b: 0.627, a: 1}
  m_SkyboxMaterial: {fileID: 10304, guid: 0000000000000000f000000000000000, type: 0}
  m_HaloStrength: 0.5
  m_FlareStrength: 1
  m_FlareFadeSpeed: 3
  m_HaloTexture: {fileID: 0}
  m_SpotCookie: {fileID: 10001, guid: 0000000000000000e000000000000000, type: 0}
  m_DefaultReflectionMode: 0
  m_DefaultReflectionResolution: 128
  m_ReflectionBounces: 1
  m_ReflectionIntensity: 1
  m_CustomReflection: {fileID: 0}
  m_Sun: {fileID: 0}
  m_IndirectSpecularColor: {r: 0.44657755, g: 0.4964127, b: 0.57481825, a: 1}
  m_UseRadianceAmbientProbe: 0
--- !u!157 &3
LightmapSettings:
  m_ObjectHideFlags: 0
  serializedVersion: 11
  m_GIWorkflowMode: 0
  m_GISettings:
    serializedVersion: 2
    m_BounceScale: 1
    m_IndirectOutputScale: 1
    m_AlbedoBoost: 1
    m_EnvironmentLightingMode: 1
    m_EnableBakedLightmaps: 1
    m_EnableRealtimeLightmaps: 1
  m_LightmapEditorSettings:
    serializedVersion: 12
    m_Resolution: 2
    m_BakeResolution: 40
    m_AtlasSize: 1024
    m_AO: 0
    m_AOMaxDistance: 1
    m_CompAOExponent: 1
    m_CompAOExponentDirect: 0
    m_ExtractAmbientOcclusion: 0
    m_Padding: 2
    m_LightmapParameters: {fileID: 0}
    m_LightmapsBakeMode: 1
    m_TextureCompression: 1
    m_FinalGather: 0
    m_FinalGatherFiltering: 1
    m_FinalGatherRayCount: 256
    m_ReflectionCompression: 2
    m_MixedBakeMode: 2
    m_BakeBackend: 1
    m_PVRSampling: 1
    m_PVRDirectSampleCount: 32
    m_PVRSampleCount: 500
    m_PVRBounces: 2
    m_PVREnvironmentSampleCount: 500
    m_PVREnvironmentReferencePointCount: 2048
    m_PVRFilteringMode: 2
    m_PVRDenoiserTypeDirect: 0
    m_PVRDenoiserTypeIndirect: 0
    m_PVRDenoiserTypeAO: 0
    m_PVRFilterTypeDirect: 0
    m_PVRFilterTypeIndirect: 0
    m_PVRFilterTypeAO: 0
    m_PVREnvironmentMIS: 0
    m_PVRCulling: 1
    m_PVRFilteringGaussRadiusDirect: 1
    m_PVRFilteringGaussRadiusIndirect: 5
    m_PVRFilteringGaussRadiusAO: 2
    m_PVRFilteringAtrousPositionSigmaDirect: 0.5
    m_PVRFilteringAtrousPositionSigmaIndirect: 2
    m_PVRFilteringAtrousPositionSigmaAO: 1
    m_ShowResolutionOverlay: 1
    m_ExportTrainingData: 0
  m_LightingDataAsset: {fileID: 0}
  m_UseShadowmask: 1
--- !u!196 &4
NavMeshSettings:
  serializedVersion: 2
  m_ObjectHideFlags: 0
  m_BuildSettings:
    serializedVersion: 2
    agentTypeID: 0
    agentRadius: 0.5
    agentHeight: 2
    agentSlope: 45
    agentClimb: 0.4
    ledgeDropHeight: 0
    maxJumpAcrossDistance: 0
    minRegionArea: 2
    manualCellSize: 0
    cellSize: 0.16666667
    manualTileSize: 0
    tileSize: 256
    accuratePlacement: 0
    debug:
      m_Flags: 0
  m_NavMeshData: {fileID: 0}
--- !u!1001 &68653854
PrefabInstance:
  m_ObjectHideFlags: 0
  serializedVersion: 2
  m_Modification:
    m_TransformParent: {fileID: 0}
    m_Modifications:
    - target: {fileID: 5031341190219663402, guid: fe45ade6610f5be4aa53ab453214c4fb,
        type: 3}
      propertyPath: m_Name
      value: SnowParticle
      objectReference: {fileID: 0}
    - target: {fileID: 5031341190219663407, guid: fe45ade6610f5be4aa53ab453214c4fb,
        type: 3}
      propertyPath: m_LocalPosition.x
      value: -1.88
      objectReference: {fileID: 0}
    - target: {fileID: 5031341190219663407, guid: fe45ade6610f5be4aa53ab453214c4fb,
        type: 3}
      propertyPath: m_LocalPosition.y
      value: 3.9
      objectReference: {fileID: 0}
    - target: {fileID: 5031341190219663407, guid: fe45ade6610f5be4aa53ab453214c4fb,
        type: 3}
      propertyPath: m_LocalPosition.z
      value: 7.25
      objectReference: {fileID: 0}
    - target: {fileID: 5031341190219663407, guid: fe45ade6610f5be4aa53ab453214c4fb,
        type: 3}
      propertyPath: m_LocalRotation.x
      value: 0
      objectReference: {fileID: 0}
    - target: {fileID: 5031341190219663407, guid: fe45ade6610f5be4aa53ab453214c4fb,
        type: 3}
      propertyPath: m_LocalRotation.y
      value: 0
      objectReference: {fileID: 0}
    - target: {fileID: 5031341190219663407, guid: fe45ade6610f5be4aa53ab453214c4fb,
        type: 3}
      propertyPath: m_LocalRotation.z
      value: 0
      objectReference: {fileID: 0}
    - target: {fileID: 5031341190219663407, guid: fe45ade6610f5be4aa53ab453214c4fb,
        type: 3}
      propertyPath: m_LocalRotation.w
      value: 1
      objectReference: {fileID: 0}
    - target: {fileID: 5031341190219663407, guid: fe45ade6610f5be4aa53ab453214c4fb,
        type: 3}
      propertyPath: m_RootOrder
      value: 5
      objectReference: {fileID: 0}
    - target: {fileID: 5031341190219663407, guid: fe45ade6610f5be4aa53ab453214c4fb,
        type: 3}
      propertyPath: m_LocalEulerAnglesHint.x
      value: 0
      objectReference: {fileID: 0}
    - target: {fileID: 5031341190219663407, guid: fe45ade6610f5be4aa53ab453214c4fb,
        type: 3}
      propertyPath: m_LocalEulerAnglesHint.y
      value: 0
      objectReference: {fileID: 0}
    - target: {fileID: 5031341190219663407, guid: fe45ade6610f5be4aa53ab453214c4fb,
        type: 3}
      propertyPath: m_LocalEulerAnglesHint.z
      value: 0
      objectReference: {fileID: 0}
    m_RemovedComponents: []
  m_SourcePrefab: {fileID: 100100000, guid: fe45ade6610f5be4aa53ab453214c4fb, type: 3}
--- !u!4 &224633213 stripped
Transform:
  m_CorrespondingSourceObject: {fileID: 5484130984797849597, guid: 97b9423318f9a9d438b21940ea3220b2,
    type: 3}
  m_PrefabInstance: {fileID: 675883943596330292}
  m_PrefabAsset: {fileID: 0}
--- !u!1001 &229041968
PrefabInstance:
  m_ObjectHideFlags: 0
  serializedVersion: 2
  m_Modification:
    m_TransformParent: {fileID: 1209527803}
    m_Modifications:
    - target: {fileID: 8174770327247504213, guid: 310e5bdf35fcbd949a00c49ca5296369,
        type: 3}
      propertyPath: m_Name
      value: CubeX2
      objectReference: {fileID: 0}
    - target: {fileID: 8174770327247504209, guid: 310e5bdf35fcbd949a00c49ca5296369,
        type: 3}
      propertyPath: m_LocalPosition.x
      value: -0.5
      objectReference: {fileID: 0}
    - target: {fileID: 8174770327247504209, guid: 310e5bdf35fcbd949a00c49ca5296369,
        type: 3}
      propertyPath: m_LocalPosition.y
      value: 4
      objectReference: {fileID: 0}
    - target: {fileID: 8174770327247504209, guid: 310e5bdf35fcbd949a00c49ca5296369,
        type: 3}
      propertyPath: m_LocalPosition.z
      value: 0.75
      objectReference: {fileID: 0}
    - target: {fileID: 8174770327247504209, guid: 310e5bdf35fcbd949a00c49ca5296369,
        type: 3}
      propertyPath: m_LocalRotation.x
      value: -0.7071068
      objectReference: {fileID: 0}
    - target: {fileID: 8174770327247504209, guid: 310e5bdf35fcbd949a00c49ca5296369,
        type: 3}
      propertyPath: m_LocalRotation.y
      value: -0
      objectReference: {fileID: 0}
    - target: {fileID: 8174770327247504209, guid: 310e5bdf35fcbd949a00c49ca5296369,
        type: 3}
      propertyPath: m_LocalRotation.z
      value: -0
      objectReference: {fileID: 0}
    - target: {fileID: 8174770327247504209, guid: 310e5bdf35fcbd949a00c49ca5296369,
        type: 3}
      propertyPath: m_LocalRotation.w
      value: 0.7071068
      objectReference: {fileID: 0}
    - target: {fileID: 8174770327247504209, guid: 310e5bdf35fcbd949a00c49ca5296369,
        type: 3}
      propertyPath: m_RootOrder
      value: 3
      objectReference: {fileID: 0}
    - target: {fileID: 8174770327247504209, guid: 310e5bdf35fcbd949a00c49ca5296369,
        type: 3}
      propertyPath: m_LocalEulerAnglesHint.x
      value: -90
      objectReference: {fileID: 0}
    - target: {fileID: 8174770327247504209, guid: 310e5bdf35fcbd949a00c49ca5296369,
        type: 3}
      propertyPath: m_LocalEulerAnglesHint.y
      value: 0
      objectReference: {fileID: 0}
    - target: {fileID: 8174770327247504209, guid: 310e5bdf35fcbd949a00c49ca5296369,
        type: 3}
      propertyPath: m_LocalEulerAnglesHint.z
      value: 0
      objectReference: {fileID: 0}
    - target: {fileID: 8174770327247504209, guid: 310e5bdf35fcbd949a00c49ca5296369,
        type: 3}
      propertyPath: m_LocalScale.z
      value: 0.50000024
      objectReference: {fileID: 0}
    m_RemovedComponents: []
  m_SourcePrefab: {fileID: 100100000, guid: 310e5bdf35fcbd949a00c49ca5296369, type: 3}
--- !u!4 &229041969 stripped
Transform:
  m_CorrespondingSourceObject: {fileID: 8174770327247504209, guid: 310e5bdf35fcbd949a00c49ca5296369,
    type: 3}
  m_PrefabInstance: {fileID: 229041968}
  m_PrefabAsset: {fileID: 0}
--- !u!1001 &379541813
PrefabInstance:
  m_ObjectHideFlags: 0
  serializedVersion: 2
  m_Modification:
    m_TransformParent: {fileID: 1209527803}
    m_Modifications:
    - target: {fileID: 1078688343645175505, guid: 2aa7c557da469a647b59dde37b377b8a,
        type: 3}
      propertyPath: m_Name
      value: CubeBend
      objectReference: {fileID: 0}
    - target: {fileID: 4081137082293406914, guid: 2aa7c557da469a647b59dde37b377b8a,
        type: 3}
      propertyPath: m_LocalPosition.x
      value: -3.5
      objectReference: {fileID: 0}
    - target: {fileID: 4081137082293406914, guid: 2aa7c557da469a647b59dde37b377b8a,
        type: 3}
      propertyPath: m_LocalPosition.y
      value: 10
      objectReference: {fileID: 0}
    - target: {fileID: 4081137082293406914, guid: 2aa7c557da469a647b59dde37b377b8a,
        type: 3}
      propertyPath: m_LocalPosition.z
      value: 0.25
      objectReference: {fileID: 0}
    - target: {fileID: 4081137082293406914, guid: 2aa7c557da469a647b59dde37b377b8a,
        type: 3}
      propertyPath: m_LocalRotation.x
      value: -0
      objectReference: {fileID: 0}
    - target: {fileID: 4081137082293406914, guid: 2aa7c557da469a647b59dde37b377b8a,
        type: 3}
      propertyPath: m_LocalRotation.y
      value: -0
      objectReference: {fileID: 0}
    - target: {fileID: 4081137082293406914, guid: 2aa7c557da469a647b59dde37b377b8a,
        type: 3}
      propertyPath: m_LocalRotation.z
      value: 0.7071068
      objectReference: {fileID: 0}
    - target: {fileID: 4081137082293406914, guid: 2aa7c557da469a647b59dde37b377b8a,
        type: 3}
      propertyPath: m_LocalRotation.w
      value: 0.7071068
      objectReference: {fileID: 0}
    - target: {fileID: 4081137082293406914, guid: 2aa7c557da469a647b59dde37b377b8a,
        type: 3}
      propertyPath: m_RootOrder
      value: 7
      objectReference: {fileID: 0}
    - target: {fileID: 4081137082293406914, guid: 2aa7c557da469a647b59dde37b377b8a,
        type: 3}
      propertyPath: m_LocalEulerAnglesHint.x
      value: 0
      objectReference: {fileID: 0}
    - target: {fileID: 4081137082293406914, guid: 2aa7c557da469a647b59dde37b377b8a,
        type: 3}
      propertyPath: m_LocalEulerAnglesHint.y
      value: 0
      objectReference: {fileID: 0}
    - target: {fileID: 4081137082293406914, guid: 2aa7c557da469a647b59dde37b377b8a,
        type: 3}
      propertyPath: m_LocalEulerAnglesHint.z
      value: 90
      objectReference: {fileID: 0}
    - target: {fileID: 4081137082293406914, guid: 2aa7c557da469a647b59dde37b377b8a,
        type: 3}
      propertyPath: m_LocalScale.x
      value: 100.00011
      objectReference: {fileID: 0}
    - target: {fileID: 4081137082293406914, guid: 2aa7c557da469a647b59dde37b377b8a,
        type: 3}
      propertyPath: m_LocalScale.y
      value: 100.00008
      objectReference: {fileID: 0}
    - target: {fileID: 4081137082293406914, guid: 2aa7c557da469a647b59dde37b377b8a,
        type: 3}
      propertyPath: m_LocalScale.z
      value: 100.00008
      objectReference: {fileID: 0}
    m_RemovedComponents: []
  m_SourcePrefab: {fileID: 100100000, guid: 2aa7c557da469a647b59dde37b377b8a, type: 3}
--- !u!4 &379541814 stripped
Transform:
  m_CorrespondingSourceObject: {fileID: 4081137082293406914, guid: 2aa7c557da469a647b59dde37b377b8a,
    type: 3}
  m_PrefabInstance: {fileID: 379541813}
  m_PrefabAsset: {fileID: 0}
--- !u!1001 &436898400
PrefabInstance:
  m_ObjectHideFlags: 0
  serializedVersion: 2
  m_Modification:
    m_TransformParent: {fileID: 1209527803}
    m_Modifications:
    - target: {fileID: 8174770327247504213, guid: 6bb37e5eafd0aed4b93090593e100428,
        type: 3}
      propertyPath: m_Name
      value: Cube11 (2)
      objectReference: {fileID: 0}
    - target: {fileID: 8174770327247504209, guid: 6bb37e5eafd0aed4b93090593e100428,
        type: 3}
      propertyPath: m_LocalPosition.x
      value: -3.5
      objectReference: {fileID: 0}
    - target: {fileID: 8174770327247504209, guid: 6bb37e5eafd0aed4b93090593e100428,
        type: 3}
      propertyPath: m_LocalPosition.y
      value: 8
      objectReference: {fileID: 0}
    - target: {fileID: 8174770327247504209, guid: 6bb37e5eafd0aed4b93090593e100428,
        type: 3}
      propertyPath: m_LocalPosition.z
      value: 0.75
      objectReference: {fileID: 0}
    - target: {fileID: 8174770327247504209, guid: 6bb37e5eafd0aed4b93090593e100428,
        type: 3}
      propertyPath: m_LocalRotation.x
      value: -0.7071068
      objectReference: {fileID: 0}
    - target: {fileID: 8174770327247504209, guid: 6bb37e5eafd0aed4b93090593e100428,
        type: 3}
      propertyPath: m_LocalRotation.y
      value: -0
      objectReference: {fileID: 0}
    - target: {fileID: 8174770327247504209, guid: 6bb37e5eafd0aed4b93090593e100428,
        type: 3}
      propertyPath: m_LocalRotation.z
      value: -0
      objectReference: {fileID: 0}
    - target: {fileID: 8174770327247504209, guid: 6bb37e5eafd0aed4b93090593e100428,
        type: 3}
      propertyPath: m_LocalRotation.w
      value: 0.7071068
      objectReference: {fileID: 0}
    - target: {fileID: 8174770327247504209, guid: 6bb37e5eafd0aed4b93090593e100428,
        type: 3}
      propertyPath: m_RootOrder
      value: 8
      objectReference: {fileID: 0}
    - target: {fileID: 8174770327247504209, guid: 6bb37e5eafd0aed4b93090593e100428,
        type: 3}
      propertyPath: m_LocalEulerAnglesHint.x
      value: -90
      objectReference: {fileID: 0}
    - target: {fileID: 8174770327247504209, guid: 6bb37e5eafd0aed4b93090593e100428,
        type: 3}
      propertyPath: m_LocalEulerAnglesHint.y
      value: 0
      objectReference: {fileID: 0}
    - target: {fileID: 8174770327247504209, guid: 6bb37e5eafd0aed4b93090593e100428,
        type: 3}
      propertyPath: m_LocalEulerAnglesHint.z
      value: 0
      objectReference: {fileID: 0}
    - target: {fileID: 8174770327247504209, guid: 6bb37e5eafd0aed4b93090593e100428,
        type: 3}
      propertyPath: m_LocalScale.z
      value: 0.50000024
      objectReference: {fileID: 0}
    m_RemovedComponents: []
  m_SourcePrefab: {fileID: 100100000, guid: 6bb37e5eafd0aed4b93090593e100428, type: 3}
--- !u!4 &436898401 stripped
Transform:
  m_CorrespondingSourceObject: {fileID: 8174770327247504209, guid: 6bb37e5eafd0aed4b93090593e100428,
    type: 3}
  m_PrefabInstance: {fileID: 436898400}
  m_PrefabAsset: {fileID: 0}
--- !u!1001 &875794338
PrefabInstance:
  m_ObjectHideFlags: 0
  serializedVersion: 2
  m_Modification:
    m_TransformParent: {fileID: 1209527803}
    m_Modifications:
    - target: {fileID: 8174770327247504213, guid: 6bb37e5eafd0aed4b93090593e100428,
        type: 3}
      propertyPath: m_Name
      value: Cube11 (1)
      objectReference: {fileID: 0}
    - target: {fileID: 8174770327247504209, guid: 6bb37e5eafd0aed4b93090593e100428,
        type: 3}
      propertyPath: m_LocalPosition.x
      value: -0.75
      objectReference: {fileID: 0}
    - target: {fileID: 8174770327247504209, guid: 6bb37e5eafd0aed4b93090593e100428,
        type: 3}
      propertyPath: m_LocalPosition.y
      value: 5
      objectReference: {fileID: 0}
    - target: {fileID: 8174770327247504209, guid: 6bb37e5eafd0aed4b93090593e100428,
        type: 3}
      propertyPath: m_LocalPosition.z
      value: 0.75
      objectReference: {fileID: 0}
    - target: {fileID: 8174770327247504209, guid: 6bb37e5eafd0aed4b93090593e100428,
        type: 3}
      propertyPath: m_LocalRotation.x
      value: -0.7071068
      objectReference: {fileID: 0}
    - target: {fileID: 8174770327247504209, guid: 6bb37e5eafd0aed4b93090593e100428,
        type: 3}
      propertyPath: m_LocalRotation.y
      value: -0
      objectReference: {fileID: 0}
    - target: {fileID: 8174770327247504209, guid: 6bb37e5eafd0aed4b93090593e100428,
        type: 3}
      propertyPath: m_LocalRotation.z
      value: -0
      objectReference: {fileID: 0}
    - target: {fileID: 8174770327247504209, guid: 6bb37e5eafd0aed4b93090593e100428,
        type: 3}
      propertyPath: m_LocalRotation.w
      value: 0.7071068
      objectReference: {fileID: 0}
    - target: {fileID: 8174770327247504209, guid: 6bb37e5eafd0aed4b93090593e100428,
        type: 3}
      propertyPath: m_RootOrder
      value: 4
      objectReference: {fileID: 0}
    - target: {fileID: 8174770327247504209, guid: 6bb37e5eafd0aed4b93090593e100428,
        type: 3}
      propertyPath: m_LocalEulerAnglesHint.x
      value: -90
      objectReference: {fileID: 0}
    - target: {fileID: 8174770327247504209, guid: 6bb37e5eafd0aed4b93090593e100428,
        type: 3}
      propertyPath: m_LocalEulerAnglesHint.y
      value: 0
      objectReference: {fileID: 0}
    - target: {fileID: 8174770327247504209, guid: 6bb37e5eafd0aed4b93090593e100428,
        type: 3}
      propertyPath: m_LocalEulerAnglesHint.z
      value: 0
      objectReference: {fileID: 0}
    - target: {fileID: 8174770327247504209, guid: 6bb37e5eafd0aed4b93090593e100428,
        type: 3}
      propertyPath: m_LocalScale.z
      value: 0.50000024
      objectReference: {fileID: 0}
    m_RemovedComponents: []
  m_SourcePrefab: {fileID: 100100000, guid: 6bb37e5eafd0aed4b93090593e100428, type: 3}
--- !u!4 &875794339 stripped
Transform:
  m_CorrespondingSourceObject: {fileID: 8174770327247504209, guid: 6bb37e5eafd0aed4b93090593e100428,
    type: 3}
  m_PrefabInstance: {fileID: 875794338}
  m_PrefabAsset: {fileID: 0}
--- !u!1001 &977953660
PrefabInstance:
  m_ObjectHideFlags: 0
  serializedVersion: 2
  m_Modification:
    m_TransformParent: {fileID: 1209527803}
    m_Modifications:
    - target: {fileID: 8174770327247504213, guid: 033cf2ad38786354a966bd959915a88a,
        type: 3}
      propertyPath: m_Name
      value: Cube22
      objectReference: {fileID: 0}
    - target: {fileID: 8174770327247504209, guid: 033cf2ad38786354a966bd959915a88a,
        type: 3}
      propertyPath: m_LocalPosition.x
      value: 0
      objectReference: {fileID: 0}
    - target: {fileID: 8174770327247504209, guid: 033cf2ad38786354a966bd959915a88a,
        type: 3}
      propertyPath: m_LocalPosition.y
      value: 1.38
      objectReference: {fileID: 0}
    - target: {fileID: 8174770327247504209, guid: 033cf2ad38786354a966bd959915a88a,
        type: 3}
      propertyPath: m_LocalPosition.z
      value: 0.75
      objectReference: {fileID: 0}
    - target: {fileID: 8174770327247504209, guid: 033cf2ad38786354a966bd959915a88a,
        type: 3}
      propertyPath: m_LocalRotation.x
      value: -0.7071068
      objectReference: {fileID: 0}
    - target: {fileID: 8174770327247504209, guid: 033cf2ad38786354a966bd959915a88a,
        type: 3}
      propertyPath: m_LocalRotation.y
      value: -0
      objectReference: {fileID: 0}
    - target: {fileID: 8174770327247504209, guid: 033cf2ad38786354a966bd959915a88a,
        type: 3}
      propertyPath: m_LocalRotation.z
      value: -0
      objectReference: {fileID: 0}
    - target: {fileID: 8174770327247504209, guid: 033cf2ad38786354a966bd959915a88a,
        type: 3}
      propertyPath: m_LocalRotation.w
      value: 0.7071068
      objectReference: {fileID: 0}
    - target: {fileID: 8174770327247504209, guid: 033cf2ad38786354a966bd959915a88a,
        type: 3}
      propertyPath: m_RootOrder
      value: 1
      objectReference: {fileID: 0}
    - target: {fileID: 8174770327247504209, guid: 033cf2ad38786354a966bd959915a88a,
        type: 3}
      propertyPath: m_LocalEulerAnglesHint.x
      value: -90
      objectReference: {fileID: 0}
    - target: {fileID: 8174770327247504209, guid: 033cf2ad38786354a966bd959915a88a,
        type: 3}
      propertyPath: m_LocalEulerAnglesHint.y
      value: 0
      objectReference: {fileID: 0}
    - target: {fileID: 8174770327247504209, guid: 033cf2ad38786354a966bd959915a88a,
        type: 3}
      propertyPath: m_LocalEulerAnglesHint.z
      value: 0
      objectReference: {fileID: 0}
    m_RemovedComponents: []
  m_SourcePrefab: {fileID: 100100000, guid: 033cf2ad38786354a966bd959915a88a, type: 3}
--- !u!4 &977953661 stripped
Transform:
  m_CorrespondingSourceObject: {fileID: 8174770327247504209, guid: 033cf2ad38786354a966bd959915a88a,
    type: 3}
  m_PrefabInstance: {fileID: 977953660}
  m_PrefabAsset: {fileID: 0}
--- !u!1001 &1031579422
PrefabInstance:
  m_ObjectHideFlags: 0
  serializedVersion: 2
  m_Modification:
    m_TransformParent: {fileID: 1209527803}
    m_Modifications:
    - target: {fileID: 8174770327247504213, guid: 6bb37e5eafd0aed4b93090593e100428,
        type: 3}
      propertyPath: m_Name
      value: Cube11 (3)
      objectReference: {fileID: 0}
    - target: {fileID: 8174770327247504209, guid: 6bb37e5eafd0aed4b93090593e100428,
        type: 3}
      propertyPath: m_LocalPosition.x
      value: -3.5
      objectReference: {fileID: 0}
    - target: {fileID: 8174770327247504209, guid: 6bb37e5eafd0aed4b93090593e100428,
        type: 3}
      propertyPath: m_LocalPosition.y
      value: 13
      objectReference: {fileID: 0}
    - target: {fileID: 8174770327247504209, guid: 6bb37e5eafd0aed4b93090593e100428,
        type: 3}
      propertyPath: m_LocalPosition.z
      value: 0.75
      objectReference: {fileID: 0}
    - target: {fileID: 8174770327247504209, guid: 6bb37e5eafd0aed4b93090593e100428,
        type: 3}
      propertyPath: m_LocalRotation.x
      value: -0.7071068
      objectReference: {fileID: 0}
    - target: {fileID: 8174770327247504209, guid: 6bb37e5eafd0aed4b93090593e100428,
        type: 3}
      propertyPath: m_LocalRotation.y
      value: -0
      objectReference: {fileID: 0}
    - target: {fileID: 8174770327247504209, guid: 6bb37e5eafd0aed4b93090593e100428,
        type: 3}
      propertyPath: m_LocalRotation.z
      value: -0
      objectReference: {fileID: 0}
    - target: {fileID: 8174770327247504209, guid: 6bb37e5eafd0aed4b93090593e100428,
        type: 3}
      propertyPath: m_LocalRotation.w
      value: 0.7071068
      objectReference: {fileID: 0}
    - target: {fileID: 8174770327247504209, guid: 6bb37e5eafd0aed4b93090593e100428,
        type: 3}
      propertyPath: m_RootOrder
      value: 9
      objectReference: {fileID: 0}
    - target: {fileID: 8174770327247504209, guid: 6bb37e5eafd0aed4b93090593e100428,
        type: 3}
      propertyPath: m_LocalEulerAnglesHint.x
      value: -90
      objectReference: {fileID: 0}
    - target: {fileID: 8174770327247504209, guid: 6bb37e5eafd0aed4b93090593e100428,
        type: 3}
      propertyPath: m_LocalEulerAnglesHint.y
      value: 0
      objectReference: {fileID: 0}
    - target: {fileID: 8174770327247504209, guid: 6bb37e5eafd0aed4b93090593e100428,
        type: 3}
      propertyPath: m_LocalEulerAnglesHint.z
      value: 0
      objectReference: {fileID: 0}
    - target: {fileID: 8174770327247504209, guid: 6bb37e5eafd0aed4b93090593e100428,
        type: 3}
      propertyPath: m_LocalScale.z
      value: 0.50000036
      objectReference: {fileID: 0}
    m_RemovedComponents: []
  m_SourcePrefab: {fileID: 100100000, guid: 6bb37e5eafd0aed4b93090593e100428, type: 3}
--- !u!4 &1031579423 stripped
Transform:
  m_CorrespondingSourceObject: {fileID: 8174770327247504209, guid: 6bb37e5eafd0aed4b93090593e100428,
    type: 3}
  m_PrefabInstance: {fileID: 1031579422}
  m_PrefabAsset: {fileID: 0}
--- !u!1001 &1126336481
PrefabInstance:
  m_ObjectHideFlags: 0
  serializedVersion: 2
  m_Modification:
    m_TransformParent: {fileID: 1209527803}
    m_Modifications:
    - target: {fileID: 8174770327247504213, guid: 6bb37e5eafd0aed4b93090593e100428,
        type: 3}
      propertyPath: m_Name
      value: Cube11
      objectReference: {fileID: 0}
    - target: {fileID: 8174770327247504209, guid: 6bb37e5eafd0aed4b93090593e100428,
        type: 3}
      propertyPath: m_LocalPosition.x
      value: -0.25
      objectReference: {fileID: 0}
    - target: {fileID: 8174770327247504209, guid: 6bb37e5eafd0aed4b93090593e100428,
        type: 3}
      propertyPath: m_LocalPosition.y
      value: 3
      objectReference: {fileID: 0}
    - target: {fileID: 8174770327247504209, guid: 6bb37e5eafd0aed4b93090593e100428,
        type: 3}
      propertyPath: m_LocalPosition.z
      value: 0.75
      objectReference: {fileID: 0}
    - target: {fileID: 8174770327247504209, guid: 6bb37e5eafd0aed4b93090593e100428,
        type: 3}
      propertyPath: m_LocalRotation.x
      value: -0.7071068
      objectReference: {fileID: 0}
    - target: {fileID: 8174770327247504209, guid: 6bb37e5eafd0aed4b93090593e100428,
        type: 3}
      propertyPath: m_LocalRotation.y
      value: -0
      objectReference: {fileID: 0}
    - target: {fileID: 8174770327247504209, guid: 6bb37e5eafd0aed4b93090593e100428,
        type: 3}
      propertyPath: m_LocalRotation.z
      value: -0
      objectReference: {fileID: 0}
    - target: {fileID: 8174770327247504209, guid: 6bb37e5eafd0aed4b93090593e100428,
        type: 3}
      propertyPath: m_LocalRotation.w
      value: 0.7071068
      objectReference: {fileID: 0}
    - target: {fileID: 8174770327247504209, guid: 6bb37e5eafd0aed4b93090593e100428,
        type: 3}
      propertyPath: m_RootOrder
      value: 2
      objectReference: {fileID: 0}
    - target: {fileID: 8174770327247504209, guid: 6bb37e5eafd0aed4b93090593e100428,
        type: 3}
      propertyPath: m_LocalEulerAnglesHint.x
      value: -90
      objectReference: {fileID: 0}
    - target: {fileID: 8174770327247504209, guid: 6bb37e5eafd0aed4b93090593e100428,
        type: 3}
      propertyPath: m_LocalEulerAnglesHint.y
      value: 0
      objectReference: {fileID: 0}
    - target: {fileID: 8174770327247504209, guid: 6bb37e5eafd0aed4b93090593e100428,
        type: 3}
      propertyPath: m_LocalEulerAnglesHint.z
      value: 0
      objectReference: {fileID: 0}
    - target: {fileID: 8174770327247504209, guid: 6bb37e5eafd0aed4b93090593e100428,
        type: 3}
      propertyPath: m_LocalScale.z
      value: 0.50000024
      objectReference: {fileID: 0}
    m_RemovedComponents: []
  m_SourcePrefab: {fileID: 100100000, guid: 6bb37e5eafd0aed4b93090593e100428, type: 3}
--- !u!4 &1126336482 stripped
Transform:
  m_CorrespondingSourceObject: {fileID: 8174770327247504209, guid: 6bb37e5eafd0aed4b93090593e100428,
    type: 3}
  m_PrefabInstance: {fileID: 1126336481}
  m_PrefabAsset: {fileID: 0}
--- !u!1001 &1157181608
PrefabInstance:
  m_ObjectHideFlags: 0
  serializedVersion: 2
  m_Modification:
    m_TransformParent: {fileID: 1209527803}
    m_Modifications:
    - target: {fileID: 8174770327247504213, guid: c4ff990db587520438c595317e053641,
        type: 3}
      propertyPath: m_Name
      value: CubeY3
      objectReference: {fileID: 0}
    - target: {fileID: 8174770327247504209, guid: c4ff990db587520438c595317e053641,
        type: 3}
      propertyPath: m_LocalPosition.x
      value: -0.75
      objectReference: {fileID: 0}
    - target: {fileID: 8174770327247504209, guid: c4ff990db587520438c595317e053641,
        type: 3}
      propertyPath: m_LocalPosition.y
      value: 6.5
      objectReference: {fileID: 0}
    - target: {fileID: 8174770327247504209, guid: c4ff990db587520438c595317e053641,
        type: 3}
      propertyPath: m_LocalPosition.z
      value: 0.75
      objectReference: {fileID: 0}
    - target: {fileID: 8174770327247504209, guid: c4ff990db587520438c595317e053641,
        type: 3}
      propertyPath: m_LocalRotation.x
      value: -0.7071068
      objectReference: {fileID: 0}
    - target: {fileID: 8174770327247504209, guid: c4ff990db587520438c595317e053641,
        type: 3}
      propertyPath: m_LocalRotation.y
      value: -0
      objectReference: {fileID: 0}
    - target: {fileID: 8174770327247504209, guid: c4ff990db587520438c595317e053641,
        type: 3}
      propertyPath: m_LocalRotation.z
      value: -0
      objectReference: {fileID: 0}
    - target: {fileID: 8174770327247504209, guid: c4ff990db587520438c595317e053641,
        type: 3}
      propertyPath: m_LocalRotation.w
      value: 0.7071068
      objectReference: {fileID: 0}
    - target: {fileID: 8174770327247504209, guid: c4ff990db587520438c595317e053641,
        type: 3}
      propertyPath: m_RootOrder
      value: 5
      objectReference: {fileID: 0}
    - target: {fileID: 8174770327247504209, guid: c4ff990db587520438c595317e053641,
        type: 3}
      propertyPath: m_LocalEulerAnglesHint.x
      value: -90
      objectReference: {fileID: 0}
    - target: {fileID: 8174770327247504209, guid: c4ff990db587520438c595317e053641,
        type: 3}
      propertyPath: m_LocalEulerAnglesHint.y
      value: 0
      objectReference: {fileID: 0}
    - target: {fileID: 8174770327247504209, guid: c4ff990db587520438c595317e053641,
        type: 3}
      propertyPath: m_LocalEulerAnglesHint.z
      value: 0
      objectReference: {fileID: 0}
    - target: {fileID: 8174770327247504209, guid: c4ff990db587520438c595317e053641,
        type: 3}
      propertyPath: m_LocalScale.z
      value: 1.500001
      objectReference: {fileID: 0}
    m_RemovedComponents: []
  m_SourcePrefab: {fileID: 100100000, guid: c4ff990db587520438c595317e053641, type: 3}
--- !u!4 &1157181609 stripped
Transform:
  m_CorrespondingSourceObject: {fileID: 8174770327247504209, guid: c4ff990db587520438c595317e053641,
    type: 3}
  m_PrefabInstance: {fileID: 1157181608}
  m_PrefabAsset: {fileID: 0}
--- !u!4 &1182906692 stripped
Transform:
  m_CorrespondingSourceObject: {fileID: 8174770327247504209, guid: 6bb37e5eafd0aed4b93090593e100428,
    type: 3}
  m_PrefabInstance: {fileID: 8174770328346327573}
  m_PrefabAsset: {fileID: 0}
--- !u!1 &1209527801
GameObject:
  m_ObjectHideFlags: 0
  m_CorrespondingSourceObject: {fileID: 0}
  m_PrefabInstance: {fileID: 0}
  m_PrefabAsset: {fileID: 0}
  serializedVersion: 6
  m_Component:
  - component: {fileID: 1209527803}
  - component: {fileID: 1209527802}
  m_Layer: 0
  m_Name: Grid
  m_TagString: Untagged
  m_Icon: {fileID: 0}
  m_NavMeshLayer: 0
  m_StaticEditorFlags: 0
  m_IsActive: 1
--- !u!156049354 &1209527802
Grid:
  m_ObjectHideFlags: 0
  m_CorrespondingSourceObject: {fileID: 0}
  m_PrefabInstance: {fileID: 0}
  m_PrefabAsset: {fileID: 0}
  m_GameObject: {fileID: 1209527801}
  m_Enabled: 1
  m_CellSize: {x: 0.5, y: 2, z: 0.5}
  m_CellGap: {x: 0, y: 0, z: 0}
  m_CellLayout: 0
  m_CellSwizzle: 0
--- !u!4 &1209527803
Transform:
  m_ObjectHideFlags: 0
  m_CorrespondingSourceObject: {fileID: 0}
  m_PrefabInstance: {fileID: 0}
  m_PrefabAsset: {fileID: 0}
  m_GameObject: {fileID: 1209527801}
  m_LocalRotation: {x: 0.7071068, y: 0, z: 0, w: 0.7071068}
  m_LocalPosition: {x: 0, y: 0, z: 0}
  m_LocalScale: {x: 1, y: 1, z: 1}
  m_Children:
  - {fileID: 1182906692}
  - {fileID: 977953661}
  - {fileID: 1126336482}
  - {fileID: 229041969}
  - {fileID: 875794339}
  - {fileID: 1157181609}
  - {fileID: 2081005803}
  - {fileID: 379541814}
  - {fileID: 436898401}
  - {fileID: 1031579423}
  m_Father: {fileID: 0}
  m_RootOrder: 3
  m_LocalEulerAnglesHint: {x: 90, y: 0, z: 0}
--- !u!1 &1334159006
GameObject:
  m_ObjectHideFlags: 0
  m_CorrespondingSourceObject: {fileID: 0}
  m_PrefabInstance: {fileID: 0}
  m_PrefabAsset: {fileID: 0}
  serializedVersion: 6
  m_Component:
  - component: {fileID: 1334159007}
  m_Layer: 0
  m_Name: UnderStage
  m_TagString: Untagged
  m_Icon: {fileID: 0}
  m_NavMeshLayer: 0
  m_StaticEditorFlags: 0
  m_IsActive: 1
--- !u!4 &1334159007
Transform:
  m_ObjectHideFlags: 0
  m_CorrespondingSourceObject: {fileID: 0}
  m_PrefabInstance: {fileID: 0}
  m_PrefabAsset: {fileID: 0}
  m_GameObject: {fileID: 1334159006}
  m_LocalRotation: {x: 0, y: 0, z: 0, w: 1}
  m_LocalPosition: {x: 0, y: 0, z: 0}
  m_LocalScale: {x: 1, y: 1, z: 1}
  m_Children:
  - {fileID: 5891135510667896161}
  - {fileID: 7692293161216125695}
  m_Father: {fileID: 0}
  m_RootOrder: 2
  m_LocalEulerAnglesHint: {x: 0, y: 0, z: 0}
--- !u!1 &1604293075
GameObject:
  m_ObjectHideFlags: 0
  m_CorrespondingSourceObject: {fileID: 0}
  m_PrefabInstance: {fileID: 0}
  m_PrefabAsset: {fileID: 0}
  serializedVersion: 6
  m_Component:
  - component: {fileID: 1604293077}
  - component: {fileID: 1604293076}
  m_Layer: 0
  m_Name: Grid (1)
  m_TagString: Untagged
  m_Icon: {fileID: 0}
  m_NavMeshLayer: 0
  m_StaticEditorFlags: 0
  m_IsActive: 1
--- !u!156049354 &1604293076
Grid:
  m_ObjectHideFlags: 0
  m_CorrespondingSourceObject: {fileID: 0}
  m_PrefabInstance: {fileID: 0}
  m_PrefabAsset: {fileID: 0}
  m_GameObject: {fileID: 1604293075}
  m_Enabled: 1
  m_CellSize: {x: 0.5, y: 1, z: 0.5}
  m_CellGap: {x: 0, y: 0, z: 0}
  m_CellLayout: 0
  m_CellSwizzle: 0
--- !u!4 &1604293077
Transform:
  m_ObjectHideFlags: 0
  m_CorrespondingSourceObject: {fileID: 0}
  m_PrefabInstance: {fileID: 0}
  m_PrefabAsset: {fileID: 0}
  m_GameObject: {fileID: 1604293075}
  m_LocalRotation: {x: 0.7071068, y: 0, z: 0, w: 0.7071068}
  m_LocalPosition: {x: 0, y: 0.375, z: 4}
  m_LocalScale: {x: 1, y: 1, z: 1}
  m_Children:
  - {fileID: 224633213}
  m_Father: {fileID: 0}
  m_RootOrder: 4
  m_LocalEulerAnglesHint: {x: 90, y: 0, z: 0}
--- !u!1001 &2081005802
PrefabInstance:
  m_ObjectHideFlags: 0
  serializedVersion: 2
  m_Modification:
    m_TransformParent: {fileID: 1209527803}
    m_Modifications:
    - target: {fileID: 8174770327247504213, guid: 29ab09c4f0c71994bafc1271bfc90a51,
        type: 3}
      propertyPath: m_Name
      value: CubeX3
      objectReference: {fileID: 0}
    - target: {fileID: 8174770327247504209, guid: 29ab09c4f0c71994bafc1271bfc90a51,
        type: 3}
      propertyPath: m_LocalPosition.x
      value: -1.25
      objectReference: {fileID: 0}
    - target: {fileID: 8174770327247504209, guid: 29ab09c4f0c71994bafc1271bfc90a51,
        type: 3}
      propertyPath: m_LocalPosition.y
      value: 8
      objectReference: {fileID: 0}
    - target: {fileID: 8174770327247504209, guid: 29ab09c4f0c71994bafc1271bfc90a51,
        type: 3}
      propertyPath: m_LocalPosition.z
      value: 0.75
      objectReference: {fileID: 0}
    - target: {fileID: 8174770327247504209, guid: 29ab09c4f0c71994bafc1271bfc90a51,
        type: 3}
      propertyPath: m_LocalRotation.x
      value: -0.7071068
      objectReference: {fileID: 0}
    - target: {fileID: 8174770327247504209, guid: 29ab09c4f0c71994bafc1271bfc90a51,
        type: 3}
      propertyPath: m_LocalRotation.y
      value: -0
      objectReference: {fileID: 0}
    - target: {fileID: 8174770327247504209, guid: 29ab09c4f0c71994bafc1271bfc90a51,
        type: 3}
      propertyPath: m_LocalRotation.z
      value: -0
      objectReference: {fileID: 0}
    - target: {fileID: 8174770327247504209, guid: 29ab09c4f0c71994bafc1271bfc90a51,
        type: 3}
      propertyPath: m_LocalRotation.w
      value: 0.7071068
      objectReference: {fileID: 0}
    - target: {fileID: 8174770327247504209, guid: 29ab09c4f0c71994bafc1271bfc90a51,
        type: 3}
      propertyPath: m_RootOrder
      value: 6
      objectReference: {fileID: 0}
    - target: {fileID: 8174770327247504209, guid: 29ab09c4f0c71994bafc1271bfc90a51,
        type: 3}
      propertyPath: m_LocalEulerAnglesHint.x
      value: -90
      objectReference: {fileID: 0}
    - target: {fileID: 8174770327247504209, guid: 29ab09c4f0c71994bafc1271bfc90a51,
        type: 3}
      propertyPath: m_LocalEulerAnglesHint.y
      value: 0
      objectReference: {fileID: 0}
    - target: {fileID: 8174770327247504209, guid: 29ab09c4f0c71994bafc1271bfc90a51,
        type: 3}
      propertyPath: m_LocalEulerAnglesHint.z
      value: 0
      objectReference: {fileID: 0}
    - target: {fileID: 8174770327247504209, guid: 29ab09c4f0c71994bafc1271bfc90a51,
        type: 3}
      propertyPath: m_LocalScale.z
      value: 0.50000024
      objectReference: {fileID: 0}
    m_RemovedComponents: []
  m_SourcePrefab: {fileID: 100100000, guid: 29ab09c4f0c71994bafc1271bfc90a51, type: 3}
--- !u!4 &2081005803 stripped
Transform:
  m_CorrespondingSourceObject: {fileID: 8174770327247504209, guid: 29ab09c4f0c71994bafc1271bfc90a51,
    type: 3}
  m_PrefabInstance: {fileID: 2081005802}
  m_PrefabAsset: {fileID: 0}
--- !u!1001 &234841029571061694
PrefabInstance:
  m_ObjectHideFlags: 0
  serializedVersion: 2
  m_Modification:
    m_TransformParent: {fileID: 0}
    m_Modifications:
    - target: {fileID: 234841030395231407, guid: 0c7237c37fe1b8e4da175ddbc2c1dca2,
        type: 3}
      propertyPath: m_Name
      value: LevelManager
      objectReference: {fileID: 0}
    - target: {fileID: 234841030395231405, guid: 0c7237c37fe1b8e4da175ddbc2c1dca2,
        type: 3}
      propertyPath: m_LocalPosition.x
      value: 0
      objectReference: {fileID: 0}
    - target: {fileID: 234841030395231405, guid: 0c7237c37fe1b8e4da175ddbc2c1dca2,
        type: 3}
      propertyPath: m_LocalPosition.y
      value: 0
      objectReference: {fileID: 0}
    - target: {fileID: 234841030395231405, guid: 0c7237c37fe1b8e4da175ddbc2c1dca2,
        type: 3}
      propertyPath: m_LocalPosition.z
      value: 0
      objectReference: {fileID: 0}
    - target: {fileID: 234841030395231405, guid: 0c7237c37fe1b8e4da175ddbc2c1dca2,
        type: 3}
      propertyPath: m_LocalRotation.x
      value: 0
      objectReference: {fileID: 0}
    - target: {fileID: 234841030395231405, guid: 0c7237c37fe1b8e4da175ddbc2c1dca2,
        type: 3}
      propertyPath: m_LocalRotation.y
      value: 0
      objectReference: {fileID: 0}
    - target: {fileID: 234841030395231405, guid: 0c7237c37fe1b8e4da175ddbc2c1dca2,
        type: 3}
      propertyPath: m_LocalRotation.z
      value: 0
      objectReference: {fileID: 0}
    - target: {fileID: 234841030395231405, guid: 0c7237c37fe1b8e4da175ddbc2c1dca2,
        type: 3}
      propertyPath: m_LocalRotation.w
      value: 1
      objectReference: {fileID: 0}
    - target: {fileID: 234841030395231405, guid: 0c7237c37fe1b8e4da175ddbc2c1dca2,
        type: 3}
      propertyPath: m_RootOrder
      value: 0
      objectReference: {fileID: 0}
    - target: {fileID: 234841030395231405, guid: 0c7237c37fe1b8e4da175ddbc2c1dca2,
        type: 3}
      propertyPath: m_LocalEulerAnglesHint.x
      value: 0
      objectReference: {fileID: 0}
    - target: {fileID: 234841030395231405, guid: 0c7237c37fe1b8e4da175ddbc2c1dca2,
        type: 3}
      propertyPath: m_LocalEulerAnglesHint.y
      value: 0
      objectReference: {fileID: 0}
    - target: {fileID: 234841030395231405, guid: 0c7237c37fe1b8e4da175ddbc2c1dca2,
        type: 3}
      propertyPath: m_LocalEulerAnglesHint.z
      value: 0
      objectReference: {fileID: 0}
    m_RemovedComponents: []
  m_SourcePrefab: {fileID: 100100000, guid: 0c7237c37fe1b8e4da175ddbc2c1dca2, type: 3}
--- !u!1001 &675883943596330292
PrefabInstance:
  m_ObjectHideFlags: 0
  serializedVersion: 2
  m_Modification:
    m_TransformParent: {fileID: 1604293077}
    m_Modifications:
    - target: {fileID: 8809275943236417006, guid: 97b9423318f9a9d438b21940ea3220b2,
        type: 3}
      propertyPath: m_Name
      value: Goal
      objectReference: {fileID: 0}
    - target: {fileID: 5484130984797849597, guid: 97b9423318f9a9d438b21940ea3220b2,
        type: 3}
      propertyPath: m_LocalPosition.x
      value: -3.5
      objectReference: {fileID: 0}
    - target: {fileID: 5484130984797849597, guid: 97b9423318f9a9d438b21940ea3220b2,
        type: 3}
      propertyPath: m_LocalPosition.y
      value: 11.5
      objectReference: {fileID: 0}
    - target: {fileID: 5484130984797849597, guid: 97b9423318f9a9d438b21940ea3220b2,
        type: 3}
      propertyPath: m_LocalPosition.z
      value: -0.25
      objectReference: {fileID: 0}
    - target: {fileID: 5484130984797849597, guid: 97b9423318f9a9d438b21940ea3220b2,
        type: 3}
      propertyPath: m_LocalRotation.x
      value: -1
      objectReference: {fileID: 0}
    - target: {fileID: 5484130984797849597, guid: 97b9423318f9a9d438b21940ea3220b2,
        type: 3}
      propertyPath: m_LocalRotation.y
      value: -0
      objectReference: {fileID: 0}
    - target: {fileID: 5484130984797849597, guid: 97b9423318f9a9d438b21940ea3220b2,
        type: 3}
      propertyPath: m_LocalRotation.z
      value: -0
      objectReference: {fileID: 0}
    - target: {fileID: 5484130984797849597, guid: 97b9423318f9a9d438b21940ea3220b2,
        type: 3}
      propertyPath: m_LocalRotation.w
      value: 0
      objectReference: {fileID: 0}
    - target: {fileID: 5484130984797849597, guid: 97b9423318f9a9d438b21940ea3220b2,
        type: 3}
      propertyPath: m_RootOrder
      value: 0
      objectReference: {fileID: 0}
    - target: {fileID: 5484130984797849597, guid: 97b9423318f9a9d438b21940ea3220b2,
        type: 3}
      propertyPath: m_LocalEulerAnglesHint.x
      value: -90
      objectReference: {fileID: 0}
    - target: {fileID: 5484130984797849597, guid: 97b9423318f9a9d438b21940ea3220b2,
        type: 3}
      propertyPath: m_LocalEulerAnglesHint.y
      value: 0
      objectReference: {fileID: 0}
    - target: {fileID: 5484130984797849597, guid: 97b9423318f9a9d438b21940ea3220b2,
        type: 3}
      propertyPath: m_LocalEulerAnglesHint.z
      value: 0
      objectReference: {fileID: 0}
    m_RemovedComponents: []
  m_SourcePrefab: {fileID: 100100000, guid: 97b9423318f9a9d438b21940ea3220b2, type: 3}
--- !u!1001 &3672666824073394630
PrefabInstance:
  m_ObjectHideFlags: 0
  serializedVersion: 2
  m_Modification:
    m_TransformParent: {fileID: 0}
    m_Modifications:
    - target: {fileID: 8753420167665931883, guid: 648afc5bec6dc4844bd2cc4c70abae91,
        type: 3}
      propertyPath: m_Name
      value: SnowLight
      objectReference: {fileID: 0}
    - target: {fileID: 8753420167665931881, guid: 648afc5bec6dc4844bd2cc4c70abae91,
        type: 3}
      propertyPath: m_LocalPosition.x
      value: 0
      objectReference: {fileID: 0}
    - target: {fileID: 8753420167665931881, guid: 648afc5bec6dc4844bd2cc4c70abae91,
        type: 3}
      propertyPath: m_LocalPosition.y
      value: 3
      objectReference: {fileID: 0}
    - target: {fileID: 8753420167665931881, guid: 648afc5bec6dc4844bd2cc4c70abae91,
        type: 3}
      propertyPath: m_LocalPosition.z
      value: 0
      objectReference: {fileID: 0}
    - target: {fileID: 8753420167665931881, guid: 648afc5bec6dc4844bd2cc4c70abae91,
        type: 3}
      propertyPath: m_LocalRotation.x
      value: 0.42261827
      objectReference: {fileID: 0}
    - target: {fileID: 8753420167665931881, guid: 648afc5bec6dc4844bd2cc4c70abae91,
        type: 3}
      propertyPath: m_LocalRotation.y
      value: -0
      objectReference: {fileID: 0}
    - target: {fileID: 8753420167665931881, guid: 648afc5bec6dc4844bd2cc4c70abae91,
        type: 3}
      propertyPath: m_LocalRotation.z
      value: -0
      objectReference: {fileID: 0}
    - target: {fileID: 8753420167665931881, guid: 648afc5bec6dc4844bd2cc4c70abae91,
        type: 3}
      propertyPath: m_LocalRotation.w
      value: 0.9063079
      objectReference: {fileID: 0}
    - target: {fileID: 8753420167665931881, guid: 648afc5bec6dc4844bd2cc4c70abae91,
        type: 3}
      propertyPath: m_RootOrder
      value: 1
      objectReference: {fileID: 0}
    - target: {fileID: 8753420167665931881, guid: 648afc5bec6dc4844bd2cc4c70abae91,
        type: 3}
      propertyPath: m_LocalEulerAnglesHint.x
      value: 50
      objectReference: {fileID: 0}
    - target: {fileID: 8753420167665931881, guid: 648afc5bec6dc4844bd2cc4c70abae91,
        type: 3}
      propertyPath: m_LocalEulerAnglesHint.y
      value: 0
      objectReference: {fileID: 0}
    - target: {fileID: 8753420167665931881, guid: 648afc5bec6dc4844bd2cc4c70abae91,
        type: 3}
      propertyPath: m_LocalEulerAnglesHint.z
      value: 0
      objectReference: {fileID: 0}
    m_RemovedComponents: []
  m_SourcePrefab: {fileID: 100100000, guid: 648afc5bec6dc4844bd2cc4c70abae91, type: 3}
--- !u!1001 &4054134703474197878
PrefabInstance:
  m_ObjectHideFlags: 0
  serializedVersion: 2
  m_Modification:
    m_TransformParent: {fileID: 1334159007}
    m_Modifications:
    - target: {fileID: 5945787074645716877, guid: 79f0349fb7cfb24429abcf48426036ac,
        type: 3}
      propertyPath: m_Name
      value: SnowGround
      objectReference: {fileID: 0}
    - target: {fileID: 5945787074645716873, guid: 79f0349fb7cfb24429abcf48426036ac,
        type: 3}
      propertyPath: m_LocalPosition.x
      value: -3.67
      objectReference: {fileID: 0}
    - target: {fileID: 5945787074645716873, guid: 79f0349fb7cfb24429abcf48426036ac,
        type: 3}
      propertyPath: m_LocalPosition.y
      value: -0.83
      objectReference: {fileID: 0}
    - target: {fileID: 5945787074645716873, guid: 79f0349fb7cfb24429abcf48426036ac,
        type: 3}
      propertyPath: m_LocalPosition.z
      value: 20.5
      objectReference: {fileID: 0}
    - target: {fileID: 5945787074645716873, guid: 79f0349fb7cfb24429abcf48426036ac,
        type: 3}
      propertyPath: m_LocalRotation.x
      value: -0
      objectReference: {fileID: 0}
    - target: {fileID: 5945787074645716873, guid: 79f0349fb7cfb24429abcf48426036ac,
        type: 3}
      propertyPath: m_LocalRotation.y
      value: -0
      objectReference: {fileID: 0}
    - target: {fileID: 5945787074645716873, guid: 79f0349fb7cfb24429abcf48426036ac,
        type: 3}
      propertyPath: m_LocalRotation.z
      value: -0
      objectReference: {fileID: 0}
    - target: {fileID: 5945787074645716873, guid: 79f0349fb7cfb24429abcf48426036ac,
        type: 3}
      propertyPath: m_LocalRotation.w
      value: 1
      objectReference: {fileID: 0}
    - target: {fileID: 5945787074645716873, guid: 79f0349fb7cfb24429abcf48426036ac,
        type: 3}
      propertyPath: m_RootOrder
      value: 1
      objectReference: {fileID: 0}
    - target: {fileID: 5945787074645716873, guid: 79f0349fb7cfb24429abcf48426036ac,
        type: 3}
      propertyPath: m_LocalEulerAnglesHint.x
      value: 0
      objectReference: {fileID: 0}
    - target: {fileID: 5945787074645716873, guid: 79f0349fb7cfb24429abcf48426036ac,
        type: 3}
      propertyPath: m_LocalEulerAnglesHint.y
      value: 0
      objectReference: {fileID: 0}
    - target: {fileID: 5945787074645716873, guid: 79f0349fb7cfb24429abcf48426036ac,
        type: 3}
      propertyPath: m_LocalEulerAnglesHint.z
      value: 0
      objectReference: {fileID: 0}
    m_RemovedComponents: []
  m_SourcePrefab: {fileID: 100100000, guid: 79f0349fb7cfb24429abcf48426036ac, type: 3}
--- !u!1001 &5891135510667896160
PrefabInstance:
  m_ObjectHideFlags: 0
  serializedVersion: 2
  m_Modification:
    m_TransformParent: {fileID: 1334159007}
    m_Modifications:
    - target: {fileID: 5891135510463472475, guid: edb4e9c12fea75e479d2ae257682e0e6,
        type: 3}
      propertyPath: m_Name
      value: KillPlane
      objectReference: {fileID: 0}
    - target: {fileID: 5891135510463472479, guid: edb4e9c12fea75e479d2ae257682e0e6,
        type: 3}
      propertyPath: m_LocalPosition.x
      value: 0
      objectReference: {fileID: 0}
    - target: {fileID: 5891135510463472479, guid: edb4e9c12fea75e479d2ae257682e0e6,
        type: 3}
      propertyPath: m_LocalPosition.y
      value: -1.4999999
      objectReference: {fileID: 0}
    - target: {fileID: 5891135510463472479, guid: edb4e9c12fea75e479d2ae257682e0e6,
        type: 3}
      propertyPath: m_LocalPosition.z
      value: 9.24
      objectReference: {fileID: 0}
    - target: {fileID: 5891135510463472479, guid: edb4e9c12fea75e479d2ae257682e0e6,
        type: 3}
      propertyPath: m_LocalRotation.x
      value: -0
      objectReference: {fileID: 0}
    - target: {fileID: 5891135510463472479, guid: edb4e9c12fea75e479d2ae257682e0e6,
        type: 3}
      propertyPath: m_LocalRotation.y
      value: -0
      objectReference: {fileID: 0}
    - target: {fileID: 5891135510463472479, guid: edb4e9c12fea75e479d2ae257682e0e6,
        type: 3}
      propertyPath: m_LocalRotation.z
      value: -0
      objectReference: {fileID: 0}
    - target: {fileID: 5891135510463472479, guid: edb4e9c12fea75e479d2ae257682e0e6,
        type: 3}
      propertyPath: m_LocalRotation.w
      value: 1
      objectReference: {fileID: 0}
    - target: {fileID: 5891135510463472479, guid: edb4e9c12fea75e479d2ae257682e0e6,
        type: 3}
      propertyPath: m_RootOrder
      value: 0
      objectReference: {fileID: 0}
    - target: {fileID: 5891135510463472479, guid: edb4e9c12fea75e479d2ae257682e0e6,
        type: 3}
      propertyPath: m_LocalEulerAnglesHint.x
      value: 0
      objectReference: {fileID: 0}
    - target: {fileID: 5891135510463472479, guid: edb4e9c12fea75e479d2ae257682e0e6,
        type: 3}
      propertyPath: m_LocalEulerAnglesHint.y
      value: 0
      objectReference: {fileID: 0}
    - target: {fileID: 5891135510463472479, guid: edb4e9c12fea75e479d2ae257682e0e6,
        type: 3}
      propertyPath: m_LocalEulerAnglesHint.z
      value: 0
      objectReference: {fileID: 0}
    m_RemovedComponents: []
  m_SourcePrefab: {fileID: 100100000, guid: edb4e9c12fea75e479d2ae257682e0e6, type: 3}
--- !u!4 &5891135510667896161 stripped
Transform:
  m_CorrespondingSourceObject: {fileID: 5891135510463472479, guid: edb4e9c12fea75e479d2ae257682e0e6,
    type: 3}
  m_PrefabInstance: {fileID: 5891135510667896160}
  m_PrefabAsset: {fileID: 0}
--- !u!4 &7692293161216125695 stripped
Transform:
  m_CorrespondingSourceObject: {fileID: 5945787074645716873, guid: 79f0349fb7cfb24429abcf48426036ac,
    type: 3}
  m_PrefabInstance: {fileID: 4054134703474197878}
  m_PrefabAsset: {fileID: 0}
--- !u!1001 &8174770328346327573
PrefabInstance:
  m_ObjectHideFlags: 0
  serializedVersion: 2
  m_Modification:
    m_TransformParent: {fileID: 1209527803}
    m_Modifications:
    - target: {fileID: 8174770327247504213, guid: 6bb37e5eafd0aed4b93090593e100428,
        type: 3}
      propertyPath: m_Name
      value: Cube11
      objectReference: {fileID: 0}
    - target: {fileID: 8174770327247504213, guid: 6bb37e5eafd0aed4b93090593e100428,
        type: 3}
      propertyPath: m_TagString
      value: Ice
      objectReference: {fileID: 0}
    - target: {fileID: 8174770327247504209, guid: 6bb37e5eafd0aed4b93090593e100428,
        type: 3}
      propertyPath: m_LocalPosition.x
      value: 0
      objectReference: {fileID: 0}
    - target: {fileID: 8174770327247504209, guid: 6bb37e5eafd0aed4b93090593e100428,
        type: 3}
      propertyPath: m_LocalPosition.y
      value: -0
      objectReference: {fileID: 0}
    - target: {fileID: 8174770327247504209, guid: 6bb37e5eafd0aed4b93090593e100428,
        type: 3}
      propertyPath: m_LocalPosition.z
      value: 0.75
      objectReference: {fileID: 0}
    - target: {fileID: 8174770327247504209, guid: 6bb37e5eafd0aed4b93090593e100428,
        type: 3}
      propertyPath: m_LocalRotation.x
      value: -0.7071068
      objectReference: {fileID: 0}
    - target: {fileID: 8174770327247504209, guid: 6bb37e5eafd0aed4b93090593e100428,
        type: 3}
      propertyPath: m_LocalRotation.y
      value: -0
      objectReference: {fileID: 0}
    - target: {fileID: 8174770327247504209, guid: 6bb37e5eafd0aed4b93090593e100428,
        type: 3}
      propertyPath: m_LocalRotation.z
      value: -0
      objectReference: {fileID: 0}
    - target: {fileID: 8174770327247504209, guid: 6bb37e5eafd0aed4b93090593e100428,
        type: 3}
      propertyPath: m_LocalRotation.w
      value: 0.7071068
      objectReference: {fileID: 0}
    - target: {fileID: 8174770327247504209, guid: 6bb37e5eafd0aed4b93090593e100428,
        type: 3}
      propertyPath: m_RootOrder
      value: 0
      objectReference: {fileID: 0}
    - target: {fileID: 8174770327247504209, guid: 6bb37e5eafd0aed4b93090593e100428,
        type: 3}
      propertyPath: m_LocalEulerAnglesHint.x
      value: 0
      objectReference: {fileID: 0}
    - target: {fileID: 8174770327247504209, guid: 6bb37e5eafd0aed4b93090593e100428,
        type: 3}
      propertyPath: m_LocalEulerAnglesHint.y
      value: 0
      objectReference: {fileID: 0}
    - target: {fileID: 8174770327247504209, guid: 6bb37e5eafd0aed4b93090593e100428,
        type: 3}
      propertyPath: m_LocalEulerAnglesHint.z
      value: 0
      objectReference: {fileID: 0}
    - target: {fileID: 8174770327247504212, guid: 6bb37e5eafd0aed4b93090593e100428,
        type: 3}
      propertyPath: m_Material
      value: 
      objectReference: {fileID: 0}
    m_RemovedComponents: []
  m_SourcePrefab: {fileID: 100100000, guid: 6bb37e5eafd0aed4b93090593e100428, type: 3}
