%YAML 1.1
%TAG !u! tag:unity3d.com,2011:
--- !u!29 &1
OcclusionCullingSettings:
  m_ObjectHideFlags: 0
  serializedVersion: 2
  m_OcclusionBakeSettings:
    smallestOccluder: 5
    smallestHole: 0.25
    backfaceThreshold: 100
  m_SceneGUID: 00000000000000000000000000000000
  m_OcclusionCullingData: {fileID: 0}
--- !u!104 &2
RenderSettings:
  m_ObjectHideFlags: 0
  serializedVersion: 9
  m_Fog: 0
  m_FogColor: {r: 0.5, g: 0.5, b: 0.5, a: 1}
  m_FogMode: 3
  m_FogDensity: 0.01
  m_LinearFogStart: 0
  m_LinearFogEnd: 300
  m_AmbientSkyColor: {r: 0.212, g: 0.227, b: 0.259, a: 1}
  m_AmbientEquatorColor: {r: 0.114, g: 0.125, b: 0.133, a: 1}
  m_AmbientGroundColor: {r: 0.047, g: 0.043, b: 0.035, a: 1}
  m_AmbientIntensity: 1
  m_AmbientMode: 0
  m_SubtractiveShadowColor: {r: 0.42, g: 0.478, b: 0.627, a: 1}
  m_SkyboxMaterial: {fileID: 10304, guid: 0000000000000000f000000000000000, type: 0}
  m_HaloStrength: 0.5
  m_FlareStrength: 1
  m_FlareFadeSpeed: 3
  m_HaloTexture: {fileID: 0}
  m_SpotCookie: {fileID: 10001, guid: 0000000000000000e000000000000000, type: 0}
  m_DefaultReflectionMode: 0
  m_DefaultReflectionResolution: 128
  m_ReflectionBounces: 1
  m_ReflectionIntensity: 1
  m_CustomReflection: {fileID: 0}
  m_Sun: {fileID: 705507994}
  m_IndirectSpecularColor: {r: 0.44657755, g: 0.4964127, b: 0.57481825, a: 1}
  m_UseRadianceAmbientProbe: 0
--- !u!157 &3
LightmapSettings:
  m_ObjectHideFlags: 0
  serializedVersion: 11
  m_GIWorkflowMode: 0
  m_GISettings:
    serializedVersion: 2
    m_BounceScale: 1
    m_IndirectOutputScale: 1
    m_AlbedoBoost: 1
    m_EnvironmentLightingMode: 1
    m_EnableBakedLightmaps: 1
    m_EnableRealtimeLightmaps: 1
  m_LightmapEditorSettings:
    serializedVersion: 12
    m_Resolution: 2
    m_BakeResolution: 40
    m_AtlasSize: 1024
    m_AO: 0
    m_AOMaxDistance: 1
    m_CompAOExponent: 1
    m_CompAOExponentDirect: 0
    m_ExtractAmbientOcclusion: 0
    m_Padding: 2
    m_LightmapParameters: {fileID: 0}
    m_LightmapsBakeMode: 1
    m_TextureCompression: 1
    m_FinalGather: 0
    m_FinalGatherFiltering: 1
    m_FinalGatherRayCount: 256
    m_ReflectionCompression: 2
    m_MixedBakeMode: 2
    m_BakeBackend: 1
    m_PVRSampling: 1
    m_PVRDirectSampleCount: 32
    m_PVRSampleCount: 500
    m_PVRBounces: 2
    m_PVREnvironmentSampleCount: 500
    m_PVREnvironmentReferencePointCount: 2048
    m_PVRFilteringMode: 2
    m_PVRDenoiserTypeDirect: 0
    m_PVRDenoiserTypeIndirect: 0
    m_PVRDenoiserTypeAO: 0
    m_PVRFilterTypeDirect: 0
    m_PVRFilterTypeIndirect: 0
    m_PVRFilterTypeAO: 0
    m_PVREnvironmentMIS: 0
    m_PVRCulling: 1
    m_PVRFilteringGaussRadiusDirect: 1
    m_PVRFilteringGaussRadiusIndirect: 5
    m_PVRFilteringGaussRadiusAO: 2
    m_PVRFilteringAtrousPositionSigmaDirect: 0.5
    m_PVRFilteringAtrousPositionSigmaIndirect: 2
    m_PVRFilteringAtrousPositionSigmaAO: 1
    m_ShowResolutionOverlay: 1
    m_ExportTrainingData: 0
  m_LightingDataAsset: {fileID: 0}
  m_UseShadowmask: 1
--- !u!196 &4
NavMeshSettings:
  serializedVersion: 2
  m_ObjectHideFlags: 0
  m_BuildSettings:
    serializedVersion: 2
    agentTypeID: 0
    agentRadius: 0.5
    agentHeight: 2
    agentSlope: 45
    agentClimb: 0.4
    ledgeDropHeight: 0
    maxJumpAcrossDistance: 0
    minRegionArea: 2
    manualCellSize: 0
    cellSize: 0.16666667
    manualTileSize: 0
    tileSize: 256
    accuratePlacement: 0
    debug:
      m_Flags: 0
  m_NavMeshData: {fileID: 0}
--- !u!1001 &185326991
PrefabInstance:
  m_ObjectHideFlags: 0
  serializedVersion: 2
  m_Modification:
    m_TransformParent: {fileID: 2031575098}
    m_Modifications:
    - target: {fileID: 623999255504148988, guid: 6ddfa81f6e97c684db934dc4e9166e58,
        type: 3}
      propertyPath: m_Name
      value: CubeOcean (6)
      objectReference: {fileID: 0}
    - target: {fileID: 623999255504148984, guid: 6ddfa81f6e97c684db934dc4e9166e58,
        type: 3}
      propertyPath: m_LocalPosition.x
      value: 0
      objectReference: {fileID: 0}
    - target: {fileID: 623999255504148984, guid: 6ddfa81f6e97c684db934dc4e9166e58,
        type: 3}
      propertyPath: m_LocalPosition.y
      value: 0
      objectReference: {fileID: 0}
    - target: {fileID: 623999255504148984, guid: 6ddfa81f6e97c684db934dc4e9166e58,
        type: 3}
      propertyPath: m_LocalPosition.z
      value: 7.5
      objectReference: {fileID: 0}
    - target: {fileID: 623999255504148984, guid: 6ddfa81f6e97c684db934dc4e9166e58,
        type: 3}
      propertyPath: m_LocalRotation.x
      value: -0
      objectReference: {fileID: 0}
    - target: {fileID: 623999255504148984, guid: 6ddfa81f6e97c684db934dc4e9166e58,
        type: 3}
      propertyPath: m_LocalRotation.y
      value: -0
      objectReference: {fileID: 0}
    - target: {fileID: 623999255504148984, guid: 6ddfa81f6e97c684db934dc4e9166e58,
        type: 3}
      propertyPath: m_LocalRotation.z
      value: -0
      objectReference: {fileID: 0}
    - target: {fileID: 623999255504148984, guid: 6ddfa81f6e97c684db934dc4e9166e58,
        type: 3}
      propertyPath: m_LocalRotation.w
      value: 1
      objectReference: {fileID: 0}
    - target: {fileID: 623999255504148984, guid: 6ddfa81f6e97c684db934dc4e9166e58,
        type: 3}
      propertyPath: m_RootOrder
      value: 6
      objectReference: {fileID: 0}
    - target: {fileID: 623999255504148984, guid: 6ddfa81f6e97c684db934dc4e9166e58,
        type: 3}
      propertyPath: m_LocalEulerAnglesHint.x
      value: 0
      objectReference: {fileID: 0}
    - target: {fileID: 623999255504148984, guid: 6ddfa81f6e97c684db934dc4e9166e58,
        type: 3}
      propertyPath: m_LocalEulerAnglesHint.y
      value: 0
      objectReference: {fileID: 0}
    - target: {fileID: 623999255504148984, guid: 6ddfa81f6e97c684db934dc4e9166e58,
        type: 3}
      propertyPath: m_LocalEulerAnglesHint.z
      value: 0
      objectReference: {fileID: 0}
    m_RemovedComponents: []
  m_SourcePrefab: {fileID: 100100000, guid: 6ddfa81f6e97c684db934dc4e9166e58, type: 3}
--- !u!4 &185326992 stripped
Transform:
  m_CorrespondingSourceObject: {fileID: 623999255504148984, guid: 6ddfa81f6e97c684db934dc4e9166e58,
    type: 3}
  m_PrefabInstance: {fileID: 185326991}
  m_PrefabAsset: {fileID: 0}
--- !u!4 &224633213 stripped
Transform:
  m_CorrespondingSourceObject: {fileID: 5484130984797849597, guid: 97b9423318f9a9d438b21940ea3220b2,
    type: 3}
  m_PrefabInstance: {fileID: 675883943596330292}
  m_PrefabAsset: {fileID: 0}
--- !u!1001 &615617082
PrefabInstance:
  m_ObjectHideFlags: 0
  serializedVersion: 2
  m_Modification:
    m_TransformParent: {fileID: 2031575098}
    m_Modifications:
    - target: {fileID: 623999255504148988, guid: 6ddfa81f6e97c684db934dc4e9166e58,
        type: 3}
      propertyPath: m_Name
      value: CubeOcean (4)
      objectReference: {fileID: 0}
    - target: {fileID: 623999255504148984, guid: 6ddfa81f6e97c684db934dc4e9166e58,
        type: 3}
      propertyPath: m_LocalPosition.x
      value: 0
      objectReference: {fileID: 0}
    - target: {fileID: 623999255504148984, guid: 6ddfa81f6e97c684db934dc4e9166e58,
        type: 3}
      propertyPath: m_LocalPosition.y
      value: 0
      objectReference: {fileID: 0}
    - target: {fileID: 623999255504148984, guid: 6ddfa81f6e97c684db934dc4e9166e58,
        type: 3}
      propertyPath: m_LocalPosition.z
      value: 4.5
      objectReference: {fileID: 0}
    - target: {fileID: 623999255504148984, guid: 6ddfa81f6e97c684db934dc4e9166e58,
        type: 3}
      propertyPath: m_LocalRotation.x
      value: -0
      objectReference: {fileID: 0}
    - target: {fileID: 623999255504148984, guid: 6ddfa81f6e97c684db934dc4e9166e58,
        type: 3}
      propertyPath: m_LocalRotation.y
      value: -0
      objectReference: {fileID: 0}
    - target: {fileID: 623999255504148984, guid: 6ddfa81f6e97c684db934dc4e9166e58,
        type: 3}
      propertyPath: m_LocalRotation.z
      value: -0
      objectReference: {fileID: 0}
    - target: {fileID: 623999255504148984, guid: 6ddfa81f6e97c684db934dc4e9166e58,
        type: 3}
      propertyPath: m_LocalRotation.w
      value: 1
      objectReference: {fileID: 0}
    - target: {fileID: 623999255504148984, guid: 6ddfa81f6e97c684db934dc4e9166e58,
        type: 3}
      propertyPath: m_RootOrder
      value: 4
      objectReference: {fileID: 0}
    - target: {fileID: 623999255504148984, guid: 6ddfa81f6e97c684db934dc4e9166e58,
        type: 3}
      propertyPath: m_LocalEulerAnglesHint.x
      value: 0
      objectReference: {fileID: 0}
    - target: {fileID: 623999255504148984, guid: 6ddfa81f6e97c684db934dc4e9166e58,
        type: 3}
      propertyPath: m_LocalEulerAnglesHint.y
      value: 0
      objectReference: {fileID: 0}
    - target: {fileID: 623999255504148984, guid: 6ddfa81f6e97c684db934dc4e9166e58,
        type: 3}
      propertyPath: m_LocalEulerAnglesHint.z
      value: 0
      objectReference: {fileID: 0}
    m_RemovedComponents: []
  m_SourcePrefab: {fileID: 100100000, guid: 6ddfa81f6e97c684db934dc4e9166e58, type: 3}
--- !u!4 &615617083 stripped
Transform:
  m_CorrespondingSourceObject: {fileID: 623999255504148984, guid: 6ddfa81f6e97c684db934dc4e9166e58,
    type: 3}
  m_PrefabInstance: {fileID: 615617082}
  m_PrefabAsset: {fileID: 0}
--- !u!108 &705507994 stripped
Light:
  m_CorrespondingSourceObject: {fileID: 8457953767128872587, guid: 447dde86f7674674c879d4ee0aade632,
    type: 3}
  m_PrefabInstance: {fileID: 8457953767565394961}
  m_PrefabAsset: {fileID: 0}
--- !u!4 &1182906692 stripped
Transform:
  m_CorrespondingSourceObject: {fileID: 623999255504148984, guid: 6ddfa81f6e97c684db934dc4e9166e58,
    type: 3}
  m_PrefabInstance: {fileID: 623999254405275836}
  m_PrefabAsset: {fileID: 0}
--- !u!1 &1334159006
GameObject:
  m_ObjectHideFlags: 0
  m_CorrespondingSourceObject: {fileID: 0}
  m_PrefabInstance: {fileID: 0}
  m_PrefabAsset: {fileID: 0}
  serializedVersion: 6
  m_Component:
  - component: {fileID: 1334159007}
  m_Layer: 0
  m_Name: UnderStage
  m_TagString: Untagged
  m_Icon: {fileID: 0}
  m_NavMeshLayer: 0
  m_StaticEditorFlags: 0
  m_IsActive: 1
--- !u!4 &1334159007
Transform:
  m_ObjectHideFlags: 0
  m_CorrespondingSourceObject: {fileID: 0}
  m_PrefabInstance: {fileID: 0}
  m_PrefabAsset: {fileID: 0}
  m_GameObject: {fileID: 1334159006}
  m_LocalRotation: {x: 0, y: 0, z: 0, w: 1}
  m_LocalPosition: {x: 0, y: 0, z: 0}
  m_LocalScale: {x: 1, y: 1, z: 1}
  m_Children:
  - {fileID: 1834980068948150138}
  - {fileID: 5891135510667896161}
  m_Father: {fileID: 0}
  m_RootOrder: 3
  m_LocalEulerAnglesHint: {x: 0, y: 0, z: 0}
--- !u!1001 &1458015668
PrefabInstance:
  m_ObjectHideFlags: 0
  serializedVersion: 2
  m_Modification:
    m_TransformParent: {fileID: 2031575098}
    m_Modifications:
    - target: {fileID: 623999255504148988, guid: 6ddfa81f6e97c684db934dc4e9166e58,
        type: 3}
      propertyPath: m_Name
      value: CubeOcean (5)
      objectReference: {fileID: 0}
    - target: {fileID: 623999255504148984, guid: 6ddfa81f6e97c684db934dc4e9166e58,
        type: 3}
      propertyPath: m_LocalPosition.x
      value: 0
      objectReference: {fileID: 0}
    - target: {fileID: 623999255504148984, guid: 6ddfa81f6e97c684db934dc4e9166e58,
        type: 3}
      propertyPath: m_LocalPosition.y
      value: 0
      objectReference: {fileID: 0}
    - target: {fileID: 623999255504148984, guid: 6ddfa81f6e97c684db934dc4e9166e58,
        type: 3}
      propertyPath: m_LocalPosition.z
      value: 6
      objectReference: {fileID: 0}
    - target: {fileID: 623999255504148984, guid: 6ddfa81f6e97c684db934dc4e9166e58,
        type: 3}
      propertyPath: m_LocalRotation.x
      value: -0
      objectReference: {fileID: 0}
    - target: {fileID: 623999255504148984, guid: 6ddfa81f6e97c684db934dc4e9166e58,
        type: 3}
      propertyPath: m_LocalRotation.y
      value: -0
      objectReference: {fileID: 0}
    - target: {fileID: 623999255504148984, guid: 6ddfa81f6e97c684db934dc4e9166e58,
        type: 3}
      propertyPath: m_LocalRotation.z
      value: -0
      objectReference: {fileID: 0}
    - target: {fileID: 623999255504148984, guid: 6ddfa81f6e97c684db934dc4e9166e58,
        type: 3}
      propertyPath: m_LocalRotation.w
      value: 1
      objectReference: {fileID: 0}
    - target: {fileID: 623999255504148984, guid: 6ddfa81f6e97c684db934dc4e9166e58,
        type: 3}
      propertyPath: m_RootOrder
      value: 5
      objectReference: {fileID: 0}
    - target: {fileID: 623999255504148984, guid: 6ddfa81f6e97c684db934dc4e9166e58,
        type: 3}
      propertyPath: m_LocalEulerAnglesHint.x
      value: 0
      objectReference: {fileID: 0}
    - target: {fileID: 623999255504148984, guid: 6ddfa81f6e97c684db934dc4e9166e58,
        type: 3}
      propertyPath: m_LocalEulerAnglesHint.y
      value: 0
      objectReference: {fileID: 0}
    - target: {fileID: 623999255504148984, guid: 6ddfa81f6e97c684db934dc4e9166e58,
        type: 3}
      propertyPath: m_LocalEulerAnglesHint.z
      value: 0
      objectReference: {fileID: 0}
    m_RemovedComponents: []
  m_SourcePrefab: {fileID: 100100000, guid: 6ddfa81f6e97c684db934dc4e9166e58, type: 3}
--- !u!4 &1458015669 stripped
Transform:
  m_CorrespondingSourceObject: {fileID: 623999255504148984, guid: 6ddfa81f6e97c684db934dc4e9166e58,
    type: 3}
  m_PrefabInstance: {fileID: 1458015668}
  m_PrefabAsset: {fileID: 0}
--- !u!1001 &1732671061
PrefabInstance:
  m_ObjectHideFlags: 0
  serializedVersion: 2
  m_Modification:
    m_TransformParent: {fileID: 2031575098}
    m_Modifications:
    - target: {fileID: 623999255504148988, guid: 6ddfa81f6e97c684db934dc4e9166e58,
        type: 3}
      propertyPath: m_Name
      value: CubeOcean (3)
      objectReference: {fileID: 0}
    - target: {fileID: 623999255504148984, guid: 6ddfa81f6e97c684db934dc4e9166e58,
        type: 3}
      propertyPath: m_LocalPosition.x
      value: 0
      objectReference: {fileID: 0}
    - target: {fileID: 623999255504148984, guid: 6ddfa81f6e97c684db934dc4e9166e58,
        type: 3}
      propertyPath: m_LocalPosition.y
      value: -0.02
      objectReference: {fileID: 0}
    - target: {fileID: 623999255504148984, guid: 6ddfa81f6e97c684db934dc4e9166e58,
        type: 3}
      propertyPath: m_LocalPosition.z
      value: 9
      objectReference: {fileID: 0}
    - target: {fileID: 623999255504148984, guid: 6ddfa81f6e97c684db934dc4e9166e58,
        type: 3}
      propertyPath: m_LocalRotation.x
      value: -0
      objectReference: {fileID: 0}
    - target: {fileID: 623999255504148984, guid: 6ddfa81f6e97c684db934dc4e9166e58,
        type: 3}
      propertyPath: m_LocalRotation.y
      value: -0
      objectReference: {fileID: 0}
    - target: {fileID: 623999255504148984, guid: 6ddfa81f6e97c684db934dc4e9166e58,
        type: 3}
      propertyPath: m_LocalRotation.z
      value: -0
      objectReference: {fileID: 0}
    - target: {fileID: 623999255504148984, guid: 6ddfa81f6e97c684db934dc4e9166e58,
        type: 3}
      propertyPath: m_LocalRotation.w
      value: 1
      objectReference: {fileID: 0}
    - target: {fileID: 623999255504148984, guid: 6ddfa81f6e97c684db934dc4e9166e58,
        type: 3}
      propertyPath: m_RootOrder
      value: 3
      objectReference: {fileID: 0}
    - target: {fileID: 623999255504148984, guid: 6ddfa81f6e97c684db934dc4e9166e58,
        type: 3}
      propertyPath: m_LocalEulerAnglesHint.x
      value: 0
      objectReference: {fileID: 0}
    - target: {fileID: 623999255504148984, guid: 6ddfa81f6e97c684db934dc4e9166e58,
        type: 3}
      propertyPath: m_LocalEulerAnglesHint.y
      value: 0
      objectReference: {fileID: 0}
    - target: {fileID: 623999255504148984, guid: 6ddfa81f6e97c684db934dc4e9166e58,
        type: 3}
      propertyPath: m_LocalEulerAnglesHint.z
      value: 0
      objectReference: {fileID: 0}
    m_RemovedComponents: []
  m_SourcePrefab: {fileID: 100100000, guid: 6ddfa81f6e97c684db934dc4e9166e58, type: 3}
--- !u!4 &1732671062 stripped
Transform:
  m_CorrespondingSourceObject: {fileID: 623999255504148984, guid: 6ddfa81f6e97c684db934dc4e9166e58,
    type: 3}
  m_PrefabInstance: {fileID: 1732671061}
  m_PrefabAsset: {fileID: 0}
--- !u!1001 &1937816944
PrefabInstance:
  m_ObjectHideFlags: 0
  serializedVersion: 2
  m_Modification:
    m_TransformParent: {fileID: 2031575098}
    m_Modifications:
    - target: {fileID: 623999255504148988, guid: 6ddfa81f6e97c684db934dc4e9166e58,
        type: 3}
      propertyPath: m_Name
      value: CubeOcean (2)
      objectReference: {fileID: 0}
    - target: {fileID: 623999255504148984, guid: 6ddfa81f6e97c684db934dc4e9166e58,
        type: 3}
      propertyPath: m_LocalPosition.x
      value: 0
      objectReference: {fileID: 0}
    - target: {fileID: 623999255504148984, guid: 6ddfa81f6e97c684db934dc4e9166e58,
        type: 3}
      propertyPath: m_LocalPosition.y
      value: 0
      objectReference: {fileID: 0}
    - target: {fileID: 623999255504148984, guid: 6ddfa81f6e97c684db934dc4e9166e58,
        type: 3}
      propertyPath: m_LocalPosition.z
      value: 3
      objectReference: {fileID: 0}
    - target: {fileID: 623999255504148984, guid: 6ddfa81f6e97c684db934dc4e9166e58,
        type: 3}
      propertyPath: m_LocalRotation.x
      value: -0
      objectReference: {fileID: 0}
    - target: {fileID: 623999255504148984, guid: 6ddfa81f6e97c684db934dc4e9166e58,
        type: 3}
      propertyPath: m_LocalRotation.y
      value: -0
      objectReference: {fileID: 0}
    - target: {fileID: 623999255504148984, guid: 6ddfa81f6e97c684db934dc4e9166e58,
        type: 3}
      propertyPath: m_LocalRotation.z
      value: -0
      objectReference: {fileID: 0}
    - target: {fileID: 623999255504148984, guid: 6ddfa81f6e97c684db934dc4e9166e58,
        type: 3}
      propertyPath: m_LocalRotation.w
      value: 1
      objectReference: {fileID: 0}
    - target: {fileID: 623999255504148984, guid: 6ddfa81f6e97c684db934dc4e9166e58,
        type: 3}
      propertyPath: m_RootOrder
      value: 2
      objectReference: {fileID: 0}
    - target: {fileID: 623999255504148984, guid: 6ddfa81f6e97c684db934dc4e9166e58,
        type: 3}
      propertyPath: m_LocalEulerAnglesHint.x
      value: 0
      objectReference: {fileID: 0}
    - target: {fileID: 623999255504148984, guid: 6ddfa81f6e97c684db934dc4e9166e58,
        type: 3}
      propertyPath: m_LocalEulerAnglesHint.y
      value: 0
      objectReference: {fileID: 0}
    - target: {fileID: 623999255504148984, guid: 6ddfa81f6e97c684db934dc4e9166e58,
        type: 3}
      propertyPath: m_LocalEulerAnglesHint.z
      value: 0
      objectReference: {fileID: 0}
    m_RemovedComponents: []
  m_SourcePrefab: {fileID: 100100000, guid: 6ddfa81f6e97c684db934dc4e9166e58, type: 3}
--- !u!4 &1937816945 stripped
Transform:
  m_CorrespondingSourceObject: {fileID: 623999255504148984, guid: 6ddfa81f6e97c684db934dc4e9166e58,
    type: 3}
  m_PrefabInstance: {fileID: 1937816944}
  m_PrefabAsset: {fileID: 0}
--- !u!1 &2031575097
GameObject:
  m_ObjectHideFlags: 0
  m_CorrespondingSourceObject: {fileID: 0}
  m_PrefabInstance: {fileID: 0}
  m_PrefabAsset: {fileID: 0}
  serializedVersion: 6
  m_Component:
  - component: {fileID: 2031575098}
  m_Layer: 0
  m_Name: Stage
  m_TagString: Untagged
  m_Icon: {fileID: 0}
  m_NavMeshLayer: 0
  m_StaticEditorFlags: 0
  m_IsActive: 1
--- !u!4 &2031575098
Transform:
  m_ObjectHideFlags: 0
  m_CorrespondingSourceObject: {fileID: 0}
  m_PrefabInstance: {fileID: 0}
  m_PrefabAsset: {fileID: 0}
  m_GameObject: {fileID: 2031575097}
  m_LocalRotation: {x: 0, y: 0, z: 0, w: 1}
  m_LocalPosition: {x: 0, y: 0, z: 0}
  m_LocalScale: {x: 1, y: 1, z: 1}
  m_Children:
  - {fileID: 224633213}
  - {fileID: 1182906692}
  - {fileID: 1937816945}
  - {fileID: 1732671062}
  - {fileID: 615617083}
  - {fileID: 1458015669}
  - {fileID: 185326992}
  m_Father: {fileID: 0}
  m_RootOrder: 2
  m_LocalEulerAnglesHint: {x: 0, y: 0, z: 0}
--- !u!1001 &234841029571061694
PrefabInstance:
  m_ObjectHideFlags: 0
  serializedVersion: 2
  m_Modification:
    m_TransformParent: {fileID: 0}
    m_Modifications:
    - target: {fileID: 234841030395231407, guid: 0c7237c37fe1b8e4da175ddbc2c1dca2,
        type: 3}
      propertyPath: m_Name
      value: LevelManager
      objectReference: {fileID: 0}
    - target: {fileID: 234841030395231405, guid: 0c7237c37fe1b8e4da175ddbc2c1dca2,
        type: 3}
      propertyPath: m_LocalPosition.x
      value: 0
      objectReference: {fileID: 0}
    - target: {fileID: 234841030395231405, guid: 0c7237c37fe1b8e4da175ddbc2c1dca2,
        type: 3}
      propertyPath: m_LocalPosition.y
      value: 0
      objectReference: {fileID: 0}
    - target: {fileID: 234841030395231405, guid: 0c7237c37fe1b8e4da175ddbc2c1dca2,
        type: 3}
      propertyPath: m_LocalPosition.z
      value: 0
      objectReference: {fileID: 0}
    - target: {fileID: 234841030395231405, guid: 0c7237c37fe1b8e4da175ddbc2c1dca2,
        type: 3}
      propertyPath: m_LocalRotation.x
      value: 0
      objectReference: {fileID: 0}
    - target: {fileID: 234841030395231405, guid: 0c7237c37fe1b8e4da175ddbc2c1dca2,
        type: 3}
      propertyPath: m_LocalRotation.y
      value: 0
      objectReference: {fileID: 0}
    - target: {fileID: 234841030395231405, guid: 0c7237c37fe1b8e4da175ddbc2c1dca2,
        type: 3}
      propertyPath: m_LocalRotation.z
      value: 0
      objectReference: {fileID: 0}
    - target: {fileID: 234841030395231405, guid: 0c7237c37fe1b8e4da175ddbc2c1dca2,
        type: 3}
      propertyPath: m_LocalRotation.w
      value: 1
      objectReference: {fileID: 0}
    - target: {fileID: 234841030395231405, guid: 0c7237c37fe1b8e4da175ddbc2c1dca2,
        type: 3}
      propertyPath: m_RootOrder
      value: 0
      objectReference: {fileID: 0}
    - target: {fileID: 234841030395231405, guid: 0c7237c37fe1b8e4da175ddbc2c1dca2,
        type: 3}
      propertyPath: m_LocalEulerAnglesHint.x
      value: 0
      objectReference: {fileID: 0}
    - target: {fileID: 234841030395231405, guid: 0c7237c37fe1b8e4da175ddbc2c1dca2,
        type: 3}
      propertyPath: m_LocalEulerAnglesHint.y
      value: 0
      objectReference: {fileID: 0}
    - target: {fileID: 234841030395231405, guid: 0c7237c37fe1b8e4da175ddbc2c1dca2,
        type: 3}
      propertyPath: m_LocalEulerAnglesHint.z
      value: 0
      objectReference: {fileID: 0}
    m_RemovedComponents: []
  m_SourcePrefab: {fileID: 100100000, guid: 0c7237c37fe1b8e4da175ddbc2c1dca2, type: 3}
--- !u!1001 &623999254405275836
PrefabInstance:
  m_ObjectHideFlags: 0
  serializedVersion: 2
  m_Modification:
    m_TransformParent: {fileID: 2031575098}
    m_Modifications:
    - target: {fileID: 623999255504148988, guid: 6ddfa81f6e97c684db934dc4e9166e58,
        type: 3}
      propertyPath: m_Name
      value: CubeOcean
      objectReference: {fileID: 0}
    - target: {fileID: 623999255504148984, guid: 6ddfa81f6e97c684db934dc4e9166e58,
        type: 3}
      propertyPath: m_LocalPosition.x
      value: 0
      objectReference: {fileID: 0}
    - target: {fileID: 623999255504148984, guid: 6ddfa81f6e97c684db934dc4e9166e58,
        type: 3}
      propertyPath: m_LocalPosition.y
      value: 0
      objectReference: {fileID: 0}
    - target: {fileID: 623999255504148984, guid: 6ddfa81f6e97c684db934dc4e9166e58,
        type: 3}
      propertyPath: m_LocalPosition.z
      value: 0
      objectReference: {fileID: 0}
    - target: {fileID: 623999255504148984, guid: 6ddfa81f6e97c684db934dc4e9166e58,
        type: 3}
      propertyPath: m_LocalRotation.x
      value: -0
      objectReference: {fileID: 0}
    - target: {fileID: 623999255504148984, guid: 6ddfa81f6e97c684db934dc4e9166e58,
        type: 3}
      propertyPath: m_LocalRotation.y
      value: -0
      objectReference: {fileID: 0}
    - target: {fileID: 623999255504148984, guid: 6ddfa81f6e97c684db934dc4e9166e58,
        type: 3}
      propertyPath: m_LocalRotation.z
      value: -0
      objectReference: {fileID: 0}
    - target: {fileID: 623999255504148984, guid: 6ddfa81f6e97c684db934dc4e9166e58,
        type: 3}
      propertyPath: m_LocalRotation.w
      value: 1
      objectReference: {fileID: 0}
    - target: {fileID: 623999255504148984, guid: 6ddfa81f6e97c684db934dc4e9166e58,
        type: 3}
      propertyPath: m_RootOrder
      value: 1
      objectReference: {fileID: 0}
    - target: {fileID: 623999255504148984, guid: 6ddfa81f6e97c684db934dc4e9166e58,
        type: 3}
      propertyPath: m_LocalEulerAnglesHint.x
      value: 0
      objectReference: {fileID: 0}
    - target: {fileID: 623999255504148984, guid: 6ddfa81f6e97c684db934dc4e9166e58,
        type: 3}
      propertyPath: m_LocalEulerAnglesHint.y
      value: 0
      objectReference: {fileID: 0}
    - target: {fileID: 623999255504148984, guid: 6ddfa81f6e97c684db934dc4e9166e58,
        type: 3}
      propertyPath: m_LocalEulerAnglesHint.z
      value: 0
      objectReference: {fileID: 0}
    m_RemovedComponents: []
  m_SourcePrefab: {fileID: 100100000, guid: 6ddfa81f6e97c684db934dc4e9166e58, type: 3}
--- !u!1001 &675883943596330292
PrefabInstance:
  m_ObjectHideFlags: 0
  serializedVersion: 2
  m_Modification:
    m_TransformParent: {fileID: 2031575098}
    m_Modifications:
    - target: {fileID: 8809275943236417006, guid: 97b9423318f9a9d438b21940ea3220b2,
        type: 3}
      propertyPath: m_Name
      value: Goal
      objectReference: {fileID: 0}
    - target: {fileID: 5484130984797849597, guid: 97b9423318f9a9d438b21940ea3220b2,
        type: 3}
      propertyPath: m_LocalPosition.x
      value: 0
      objectReference: {fileID: 0}
    - target: {fileID: 5484130984797849597, guid: 97b9423318f9a9d438b21940ea3220b2,
        type: 3}
      propertyPath: m_LocalPosition.y
      value: 0.75
      objectReference: {fileID: 0}
    - target: {fileID: 5484130984797849597, guid: 97b9423318f9a9d438b21940ea3220b2,
        type: 3}
      propertyPath: m_LocalPosition.z
      value: 11.5
      objectReference: {fileID: 0}
    - target: {fileID: 5484130984797849597, guid: 97b9423318f9a9d438b21940ea3220b2,
        type: 3}
      propertyPath: m_LocalRotation.x
      value: -0.7071068
      objectReference: {fileID: 0}
    - target: {fileID: 5484130984797849597, guid: 97b9423318f9a9d438b21940ea3220b2,
        type: 3}
      propertyPath: m_LocalRotation.y
      value: -0
      objectReference: {fileID: 0}
    - target: {fileID: 5484130984797849597, guid: 97b9423318f9a9d438b21940ea3220b2,
        type: 3}
      propertyPath: m_LocalRotation.z
      value: -0
      objectReference: {fileID: 0}
    - target: {fileID: 5484130984797849597, guid: 97b9423318f9a9d438b21940ea3220b2,
        type: 3}
      propertyPath: m_LocalRotation.w
      value: 0.7071068
      objectReference: {fileID: 0}
    - target: {fileID: 5484130984797849597, guid: 97b9423318f9a9d438b21940ea3220b2,
        type: 3}
      propertyPath: m_RootOrder
      value: 0
      objectReference: {fileID: 0}
    - target: {fileID: 5484130984797849597, guid: 97b9423318f9a9d438b21940ea3220b2,
        type: 3}
      propertyPath: m_LocalEulerAnglesHint.x
      value: -90
      objectReference: {fileID: 0}
    - target: {fileID: 5484130984797849597, guid: 97b9423318f9a9d438b21940ea3220b2,
        type: 3}
      propertyPath: m_LocalEulerAnglesHint.y
      value: 0
      objectReference: {fileID: 0}
    - target: {fileID: 5484130984797849597, guid: 97b9423318f9a9d438b21940ea3220b2,
        type: 3}
      propertyPath: m_LocalEulerAnglesHint.z
      value: 0
      objectReference: {fileID: 0}
    - target: {fileID: 675883943388474594, guid: 97b9423318f9a9d438b21940ea3220b2,
        type: 3}
      propertyPath: levelToChange
      value: OLevel 7
      objectReference: {fileID: 0}
    m_RemovedComponents: []
  m_SourcePrefab: {fileID: 100100000, guid: 97b9423318f9a9d438b21940ea3220b2, type: 3}
--- !u!1001 &1834980068948150137
PrefabInstance:
  m_ObjectHideFlags: 0
  serializedVersion: 2
  m_Modification:
    m_TransformParent: {fileID: 1334159007}
    m_Modifications:
    - target: {fileID: 5239564531931457857, guid: bae55c88749147345944dfc195c010bf,
        type: 3}
      propertyPath: m_Name
      value: OceanGround
      objectReference: {fileID: 0}
    - target: {fileID: 5239564531931457861, guid: bae55c88749147345944dfc195c010bf,
        type: 3}
      propertyPath: m_LocalPosition.x
      value: 0
      objectReference: {fileID: 0}
    - target: {fileID: 5239564531931457861, guid: bae55c88749147345944dfc195c010bf,
        type: 3}
      propertyPath: m_LocalPosition.y
      value: -0.9
      objectReference: {fileID: 0}
    - target: {fileID: 5239564531931457861, guid: bae55c88749147345944dfc195c010bf,
        type: 3}
      propertyPath: m_LocalPosition.z
      value: 20.5
      objectReference: {fileID: 0}
    - target: {fileID: 5239564531931457861, guid: bae55c88749147345944dfc195c010bf,
        type: 3}
      propertyPath: m_LocalRotation.x
      value: -0
      objectReference: {fileID: 0}
    - target: {fileID: 5239564531931457861, guid: bae55c88749147345944dfc195c010bf,
        type: 3}
      propertyPath: m_LocalRotation.y
      value: -0
      objectReference: {fileID: 0}
    - target: {fileID: 5239564531931457861, guid: bae55c88749147345944dfc195c010bf,
        type: 3}
      propertyPath: m_LocalRotation.z
      value: -0
      objectReference: {fileID: 0}
    - target: {fileID: 5239564531931457861, guid: bae55c88749147345944dfc195c010bf,
        type: 3}
      propertyPath: m_LocalRotation.w
      value: 1
      objectReference: {fileID: 0}
    - target: {fileID: 5239564531931457861, guid: bae55c88749147345944dfc195c010bf,
        type: 3}
      propertyPath: m_RootOrder
      value: 0
      objectReference: {fileID: 0}
    - target: {fileID: 5239564531931457861, guid: bae55c88749147345944dfc195c010bf,
        type: 3}
      propertyPath: m_LocalEulerAnglesHint.x
      value: 0
      objectReference: {fileID: 0}
    - target: {fileID: 5239564531931457861, guid: bae55c88749147345944dfc195c010bf,
        type: 3}
      propertyPath: m_LocalEulerAnglesHint.y
      value: 0
      objectReference: {fileID: 0}
    - target: {fileID: 5239564531931457861, guid: bae55c88749147345944dfc195c010bf,
        type: 3}
      propertyPath: m_LocalEulerAnglesHint.z
      value: 0
      objectReference: {fileID: 0}
    m_RemovedComponents: []
  m_SourcePrefab: {fileID: 100100000, guid: bae55c88749147345944dfc195c010bf, type: 3}
--- !u!4 &1834980068948150138 stripped
Transform:
  m_CorrespondingSourceObject: {fileID: 5239564531931457861, guid: bae55c88749147345944dfc195c010bf,
    type: 3}
  m_PrefabInstance: {fileID: 1834980068948150137}
  m_PrefabAsset: {fileID: 0}
--- !u!1001 &5891135510667896160
PrefabInstance:
  m_ObjectHideFlags: 0
  serializedVersion: 2
  m_Modification:
    m_TransformParent: {fileID: 1334159007}
    m_Modifications:
    - target: {fileID: 5891135510463472475, guid: edb4e9c12fea75e479d2ae257682e0e6,
        type: 3}
      propertyPath: m_Name
      value: KillPlane
      objectReference: {fileID: 0}
    - target: {fileID: 5891135510463472479, guid: edb4e9c12fea75e479d2ae257682e0e6,
        type: 3}
      propertyPath: m_LocalPosition.x
      value: 0
      objectReference: {fileID: 0}
    - target: {fileID: 5891135510463472479, guid: edb4e9c12fea75e479d2ae257682e0e6,
        type: 3}
      propertyPath: m_LocalPosition.y
      value: -1.4999999
      objectReference: {fileID: 0}
    - target: {fileID: 5891135510463472479, guid: edb4e9c12fea75e479d2ae257682e0e6,
        type: 3}
      propertyPath: m_LocalPosition.z
      value: 9.24
      objectReference: {fileID: 0}
    - target: {fileID: 5891135510463472479, guid: edb4e9c12fea75e479d2ae257682e0e6,
        type: 3}
      propertyPath: m_LocalRotation.x
      value: -0
      objectReference: {fileID: 0}
    - target: {fileID: 5891135510463472479, guid: edb4e9c12fea75e479d2ae257682e0e6,
        type: 3}
      propertyPath: m_LocalRotation.y
      value: -0
      objectReference: {fileID: 0}
    - target: {fileID: 5891135510463472479, guid: edb4e9c12fea75e479d2ae257682e0e6,
        type: 3}
      propertyPath: m_LocalRotation.z
      value: -0
      objectReference: {fileID: 0}
    - target: {fileID: 5891135510463472479, guid: edb4e9c12fea75e479d2ae257682e0e6,
        type: 3}
      propertyPath: m_LocalRotation.w
      value: 1
      objectReference: {fileID: 0}
    - target: {fileID: 5891135510463472479, guid: edb4e9c12fea75e479d2ae257682e0e6,
        type: 3}
      propertyPath: m_RootOrder
      value: 1
      objectReference: {fileID: 0}
    - target: {fileID: 5891135510463472479, guid: edb4e9c12fea75e479d2ae257682e0e6,
        type: 3}
      propertyPath: m_LocalEulerAnglesHint.x
      value: 0
      objectReference: {fileID: 0}
    - target: {fileID: 5891135510463472479, guid: edb4e9c12fea75e479d2ae257682e0e6,
        type: 3}
      propertyPath: m_LocalEulerAnglesHint.y
      value: 0
      objectReference: {fileID: 0}
    - target: {fileID: 5891135510463472479, guid: edb4e9c12fea75e479d2ae257682e0e6,
        type: 3}
      propertyPath: m_LocalEulerAnglesHint.z
      value: 0
      objectReference: {fileID: 0}
    m_RemovedComponents: []
  m_SourcePrefab: {fileID: 100100000, guid: edb4e9c12fea75e479d2ae257682e0e6, type: 3}
--- !u!4 &5891135510667896161 stripped
Transform:
  m_CorrespondingSourceObject: {fileID: 5891135510463472479, guid: edb4e9c12fea75e479d2ae257682e0e6,
    type: 3}
  m_PrefabInstance: {fileID: 5891135510667896160}
  m_PrefabAsset: {fileID: 0}
--- !u!1001 &8457953767565394961
PrefabInstance:
  m_ObjectHideFlags: 0
  serializedVersion: 2
  m_Modification:
    m_TransformParent: {fileID: 0}
    m_Modifications:
    - target: {fileID: 8457953767128872584, guid: 447dde86f7674674c879d4ee0aade632,
        type: 3}
      propertyPath: m_Name
      value: OceanLight
      objectReference: {fileID: 0}
    - target: {fileID: 8457953767128872586, guid: 447dde86f7674674c879d4ee0aade632,
        type: 3}
      propertyPath: m_LocalPosition.x
      value: 0
      objectReference: {fileID: 0}
    - target: {fileID: 8457953767128872586, guid: 447dde86f7674674c879d4ee0aade632,
        type: 3}
      propertyPath: m_LocalPosition.y
      value: 3
      objectReference: {fileID: 0}
    - target: {fileID: 8457953767128872586, guid: 447dde86f7674674c879d4ee0aade632,
        type: 3}
      propertyPath: m_LocalPosition.z
      value: 0
      objectReference: {fileID: 0}
    - target: {fileID: 8457953767128872586, guid: 447dde86f7674674c879d4ee0aade632,
        type: 3}
      propertyPath: m_LocalRotation.x
      value: 0.42261827
      objectReference: {fileID: 0}
    - target: {fileID: 8457953767128872586, guid: 447dde86f7674674c879d4ee0aade632,
        type: 3}
      propertyPath: m_LocalRotation.y
      value: 0
      objectReference: {fileID: 0}
    - target: {fileID: 8457953767128872586, guid: 447dde86f7674674c879d4ee0aade632,
        type: 3}
      propertyPath: m_LocalRotation.z
      value: 0
      objectReference: {fileID: 0}
    - target: {fileID: 8457953767128872586, guid: 447dde86f7674674c879d4ee0aade632,
        type: 3}
      propertyPath: m_LocalRotation.w
      value: 0.9063079
      objectReference: {fileID: 0}
    - target: {fileID: 8457953767128872586, guid: 447dde86f7674674c879d4ee0aade632,
        type: 3}
      propertyPath: m_RootOrder
      value: 1
      objectReference: {fileID: 0}
    - target: {fileID: 8457953767128872586, guid: 447dde86f7674674c879d4ee0aade632,
        type: 3}
      propertyPath: m_LocalEulerAnglesHint.x
      value: 50
      objectReference: {fileID: 0}
    - target: {fileID: 8457953767128872586, guid: 447dde86f7674674c879d4ee0aade632,
        type: 3}
      propertyPath: m_LocalEulerAnglesHint.y
      value: 0
      objectReference: {fileID: 0}
    - target: {fileID: 8457953767128872586, guid: 447dde86f7674674c879d4ee0aade632,
        type: 3}
      propertyPath: m_LocalEulerAnglesHint.z
      value: 0
      objectReference: {fileID: 0}
    m_RemovedComponents: []
  m_SourcePrefab: {fileID: 100100000, guid: 447dde86f7674674c879d4ee0aade632, type: 3}
