%YAML 1.1
%TAG !u! tag:unity3d.com,2011:
--- !u!114 &11400000
MonoBehaviour:
  m_ObjectHideFlags: 0
  m_CorrespondingSourceObject: {fileID: 0}
  m_PrefabInstance: {fileID: 0}
  m_PrefabAsset: {fileID: 0}
  m_GameObject: {fileID: 0}
  m_Enabled: 1
  m_EditorHideFlags: 0
  m_Script: {fileID: 11500000, guid: 8a43bd9070ccd514eaee9d11f0e7bb1a, type: 3}
  m_Name: Windy
  m_EditorClassIdentifier: 
  terrain: {fileID: 2139980412442260123, guid: 16e7dcaf75a761346b12cd1d8b9c862a, type: 3}
  maxInSuccession: 1
